<?xml version="1.0" encoding="UTF-8"?>
<!DOCTYPE svg PUBLIC "-//W3C//DTD SVG 1.1//EN" "http://www.w3.org/Graphics/SVG/1.1/DTD/svg11.dtd">
<!-- Creator: CorelDRAW X7 -->
<svg xmlns="http://www.w3.org/2000/svg" xml:space="preserve" width="100%" height="100%" version="1.1" style="shape-rendering:geometricPrecision; text-rendering:geometricPrecision; image-rendering:optimizeQuality; fill-rule:evenodd; clip-rule:evenodd"
viewBox="0 0 1270 1270"
 xmlns:xlink="http://www.w3.org/1999/xlink">
 <defs>
  <style type="text/css">
   <![CDATA[
    .fil1 {fill:black}
    .fil0 {fill:#00CCFF}
   ]]>
  </style>
 </defs>
 <g id="Layer_x0020_1">
  <metadata id="CorelCorpID_0Corel-Layer"/>
  <path class="fil0" d="M35 1235l36 0 0 -515c0,-3 -2,-6 -4,-8 -2,-2 -5,-3 -8,-2 -2,0 -4,0 -6,0 -2,0 -4,0 -6,0 -3,-1 -6,0 -8,2 -3,2 -4,5 -4,8l0 515z"/>
  <g id="_722689360">
   <path class="fil1" d="M1163 814c-24,78 -34,138 -34,241 0,2 -2,3 -4,3l-169 0c-2,0 -4,2 -4,4l0 169c0,2 2,4 4,4l28 0c2,0 3,-2 3,-4l0 -64c0,-2 2,-3 3,-3 47,-10 95,-10 144,-2 1,0 2,1 3,3 4,23 11,47 20,68 0,1 2,2 3,2l31 0c1,0 3,-1 3,-2 1,-1 1,-2 0,-4 -19,-35 -30,-106 -30,-135 0,-12 0,-24 0,-36 0,-87 8,-153 34,-236 0,-2 1,-4 1,-6 1,-1 0,-2 0,-3 -1,-1 -2,-2 -3,-2l-30 0c-1,0 -2,1 -3,3zm-34 283c0,7 0,15 1,24 0,1 0,2 -1,3 -1,1 -2,1 -3,1 -45,-6 -90,-6 -134,2 -1,1 -2,0 -3,0 -1,-1 -2,-2 -2,-3l0 -27c0,-2 2,-3 4,-3l134 0c2,0 4,1 4,3z"/>
   <path class="fil1" d="M606 1229c77,-70 87,-161 30,-275 -1,-1 -2,-2 -4,-2l-100 0c-2,0 -3,-1 -3,-3l0 -28c0,-2 1,-4 3,-4 157,0 293,0 452,0 2,0 3,2 3,4l0 28c0,2 -1,3 -3,3l-100 0c-2,0 -3,1 -3,2 -58,114 -48,205 29,275 1,1 1,2 1,3 -1,2 -2,3 -4,3l-39 0c-1,0 -2,-1 -3,-1 -37,-42 -54,-88 -56,-137 0,-2 -2,-3 -4,-3l-26 0c-2,0 -3,1 -3,3l0 134c0,2 -2,4 -4,4l-28 0c-2,0 -4,-2 -4,-4l0 -134c0,-2 -1,-3 -3,-3l-26 0c-2,0 -3,1 -4,3 -1,49 -19,95 -56,137 0,0 -1,1 -2,1l-40 0c-2,0 -3,-1 -4,-3 0,-1 0,-2 1,-3zm231 -277l-58 0c-2,0 -3,2 -3,4l0 99c0,2 1,3 3,3l28 0c2,0 4,-1 4,-3 4,-32 14,-65 29,-98 1,-1 0,-2 0,-3 -1,-1 -2,-2 -3,-2zm-97 103l0 -99c0,-2 -1,-4 -3,-4l-58 0c-1,0 -2,1 -3,2 0,1 0,2 0,3 15,33 25,66 29,98 1,2 2,3 4,3l28 0c2,0 3,-1 3,-3z"/>
   <path class="fil1" d="M353 814c24,78 34,138 35,241 0,2 1,3 3,3l170 0c2,0 3,2 3,4l0 169c0,2 -1,4 -3,4l-29 0c-2,0 -3,-2 -3,-4l0 -64c0,-2 -1,-3 -3,-3 -47,-10 -95,-10 -144,-2 -1,0 -2,1 -2,3 -5,23 -12,47 -20,68 -1,1 -2,2 -4,2l-31 0c-1,0 -2,-1 -3,-2 -1,-1 -1,-2 0,-4 20,-35 30,-106 30,-135 0,-12 0,-24 0,-36 0,-87 -8,-153 -33,-236 -1,-2 -1,-4 -2,-6 0,-1 0,-2 0,-3 1,-1 2,-2 3,-2l30 0c1,0 3,1 3,3zm35 283c0,7 -1,15 -2,24 0,1 0,2 1,3 1,1 2,1 3,1 45,-6 90,-6 135,2 1,1 2,0 3,0 0,-1 1,-2 1,-3l0 -27c0,-2 -2,-3 -4,-3l-134 0c-2,0 -3,1 -3,3z"/>
  </g>
  <polygon class="fil1" points="1235,0 1235,1235 0,1235 0,1270 1235,1270 1270,1270 1270,1235 1270,0 "/>
  <path class="fil0" d="M595 74c-115,12 -221,58 -307,127 -2,2 -5,3 -8,2 -3,0 -5,-1 -7,-4 -2,-3 -5,-6 -8,-9 -2,-2 -4,-5 -4,-8 0,-3 2,-6 4,-8 92,-74 204,-123 328,-135 3,-1 6,0 8,2 2,3 3,6 3,9 0,1 0,2 0,3 0,3 0,6 1,9 0,3 0,5 -2,8 -2,2 -5,3 -8,4zm-394 214c-69,86 -115,192 -127,307 -1,3 -2,6 -4,8 -3,2 -6,2 -8,2 -3,-1 -6,-1 -9,-1 -1,0 -2,0 -3,0 -3,0 -6,-1 -9,-3 -2,-2 -3,-5 -2,-8 12,-124 61,-236 135,-328 2,-2 5,-4 8,-4 3,0 6,2 8,4 3,3 6,6 9,8 2,2 4,4 4,7 1,3 0,6 -2,8z"/>
  <circle class="fil1" cx="230" cy="230" r="35"/>
  <circle class="fil1" cx="53" cy="657" r="35"/>
  <circle class="fil1" cx="657" cy="53" r="35"/>
  <path class="fil0" d="M1235 71l0 -36 -515 0c-3,0 -6,1 -8,4 -2,2 -3,5 -2,8 0,2 0,4 0,6 0,2 0,4 0,6 -1,3 0,6 2,8 2,2 5,4 8,4l515 0z"/>
  <path class="fil1" d="M712 1235c0,-28 -1,-55 -3,-82 5,-16 8,-32 9,-49l0 0c3,42 5,85 5,131l-11 0zm-15 -254l-1 -18 12 0c1,23 3,47 5,71 -4,-18 -9,-36 -16,-53zm-2 -74c0,-12 0,-24 0,-35 6,-189 80,-330 197,-473 1,5 3,9 4,13 -159,196 -191,343 -190,495l-11 0zm-57 268c-1,-67 -1,-130 0,-189 5,9 8,19 11,28 -1,44 0,90 0,139 -3,8 -7,15 -11,22zm4 -268c14,-184 61,-343 219,-535 4,1 8,2 11,4 -158,191 -205,346 -218,531l-12 0z"/>
  <path class="fil1" d="M577 1235c-1,-23 -1,-47 -2,-71l0 -102c0,-6 -4,-11 -9,-13 -3,-28 -6,-57 -11,-86l12 0c14,90 20,183 21,272l-11 0zm-32 -328c-29,-152 -82,-301 -173,-404 4,-2 8,-3 12,-4 88,102 142,249 173,408l-12 0zm-30 141l0 -24c-14,-186 -38,-349 -160,-490 1,-5 2,-9 3,-13 109,122 143,259 160,414l0 14c0,3 1,5 2,8 3,22 5,44 6,67l0 24 -11 0z"/>
  <path class="fil0" d="M821 740c90,-87 122,-203 65,-358 -125,-57 -217,4 -290,138 -10,-197 64,-280 211,-265 -40,-60 -114,-75 -213,-56 85,-91 274,-129 355,90 168,-19 244,66 261,217 -36,-64 -89,-104 -153,-126 72,54 145,187 26,337 21,-101 -1,-185 -69,-253 37,154 -50,233 -193,276z"/>
  <path class="fil0" d="M415 756c-64,-60 -88,-140 -53,-249 84,-40 147,1 200,93 2,-136 -50,-193 -149,-182 26,-42 76,-53 143,-40 -59,-63 -202,-89 -252,64 -114,-12 -150,50 -159,155 24,-45 58,-73 101,-89 -48,38 -94,131 -10,234 -16,-69 -4,-129 41,-176 -21,107 39,161 138,190z"/>
 </g>
</svg>
