<?xml version="1.0" encoding="UTF-8"?>
<!DOCTYPE svg PUBLIC "-//W3C//DTD SVG 1.1//EN" "http://www.w3.org/Graphics/SVG/1.1/DTD/svg11.dtd">
<!-- Creator: CorelDRAW X7 -->
<svg xmlns="http://www.w3.org/2000/svg" xml:space="preserve" width="100%" height="100%" version="1.1" style="shape-rendering:geometricPrecision; text-rendering:geometricPrecision; image-rendering:optimizeQuality; fill-rule:evenodd; clip-rule:evenodd"
viewBox="0 0 1270 1266"
 xmlns:xlink="http://www.w3.org/1999/xlink">
 <defs>
  <style type="text/css">
   <![CDATA[
    .fil0 {fill:black}
    .fil1 {fill:#00CCFF}
   ]]>
  </style>
 </defs>
 <g id="Layer_x0020_1">
  <metadata id="CorelCorpID_0Corel-Layer"/>
  <g id="_713157520">
   <path class="fil0" d="M370 807l530 0c9,0 17,8 17,18 0,41 0,117 0,143 0,7 -15,13 -35,15l0 229c0,10 -8,18 -18,18l0 0c-9,0 -17,-8 -17,-18l0 -231c-9,-1 -15,-4 -19,-6 -3,-2 -7,-2 -9,0 -8,5 -24,9 -43,9 -19,0 -35,-4 -42,-9 -3,-2 -7,-2 -9,0 -8,5 -24,9 -43,9 -19,0 -35,-4 -42,-9 -3,-2 -7,-2 -10,0 -7,5 -23,9 -42,9 -19,0 -35,-4 -43,-9 -2,-2 -6,-2 -9,0 -7,5 -23,9 -42,9 -19,0 -35,-4 -43,-9 -2,-2 -6,-2 -9,0 -4,2 -10,5 -19,6l0 231c0,10 -8,18 -17,18l0 0c-10,0 -18,-8 -18,-18l0 -229c-20,-2 -35,-8 -35,-15l0 -143c0,-10 8,-18 17,-18zm859 -502c-213,-53 -415,-137 -594,-266 -179,129 -381,213 -594,266 19,6 52,8 65,8 18,0 60,-3 75,-13 19,-13 43,-13 61,0 15,10 57,13 76,13 18,0 60,-3 75,-13 18,-13 42,-13 61,0 15,10 57,13 75,13 18,0 60,-3 76,-13 18,-13 42,-13 60,0 16,10 58,13 76,13 18,0 60,-3 75,-13 19,-13 43,-13 61,0 15,10 57,13 75,13 19,0 61,-3 76,-13 18,-13 42,-13 61,0 15,10 57,13 75,13 13,0 46,-2 65,-8zm41 8l0 953c-47,0 -94,0 -141,0 0,-177 0,-318 35,-424 -5,0 -9,-7 -9,-17 0,-10 4,-18 9,-18 -128,-161 -198,-233 -210,-458l-2 0c-42,0 -78,-9 -95,-21 -6,-4 -14,-4 -20,0 -17,12 -54,21 -96,21 -42,0 -79,-9 -96,-21 -6,-4 -14,-4 -20,0 -17,12 -54,21 -96,21 -42,0 -79,-9 -96,-21 -6,-4 -14,-4 -20,0 -17,12 -53,21 -95,21l-2 0c-12,225 -82,297 -210,458 5,0 9,8 9,18 0,10 -4,17 -9,17 35,106 35,247 35,424 -47,0 -94,0 -141,0l0 -953 0 -21c0,-8 6,-15 14,-17 226,-54 432,-141 611,-272 6,-4 14,-4 20,0 182,134 393,222 625,275l0 0 0 35c0,7 -6,14 -17,19 11,-5 17,-12 17,-19zm-281 33c10,202 65,267 203,439 5,7 7,14 7,22l36 0 0 -467c-19,5 -44,9 -71,9 -42,0 -79,-9 -96,-21 -6,-4 -14,-4 -20,0 -12,9 -33,15 -59,18zm259 -11c1,-1 2,-1 4,-2 -2,1 -3,1 -4,2zm-49 507l36 0 0 389c-24,0 -47,0 -71,0 0,-120 -2,-272 34,-377 1,-4 1,-8 1,-12zm-918 -496c-10,202 -65,267 -203,439 -5,7 -7,14 -7,22l-36 0 0 -467c19,5 44,9 71,9 42,0 79,-9 96,-21 6,-4 14,-4 20,0 11,9 33,15 59,18zm-210 496l-36 0 0 389c24,0 47,0 71,0 0,-120 2,-272 -34,-377 -1,-4 -1,-8 -1,-12zm317 18l0 70c0,5 2,10 6,13 3,4 8,5 13,5 3,0 7,-1 11,-1 2,-1 4,-1 6,-3 14,-8 32,-8 45,0 2,1 3,2 5,2 6,2 15,2 20,2 4,0 12,0 18,-1 2,-1 4,-1 6,-3 14,-8 32,-8 45,0 2,1 3,2 5,2 6,2 15,2 20,2 4,0 12,0 18,-1 2,-1 4,-1 6,-3 14,-8 32,-8 45,0 2,1 4,2 5,2 7,2 15,2 20,2 4,0 12,0 18,-1 2,-1 4,-1 6,-3 14,-8 32,-8 45,0 2,1 4,2 6,2 6,2 15,2 19,2 4,0 12,0 18,-1 2,-1 4,-1 6,-3 14,-8 32,-8 45,0 2,1 4,2 6,2 3,1 8,2 12,2 5,0 10,-1 13,-5 4,-3 6,-8 6,-13 0,-23 0,-46 0,-70 0,-10 -8,-18 -18,-18l-458 0c-10,0 -18,8 -18,18z"/>
   <path class="fil1" d="M400 807l19 -4 0 -32c0,-2 -1,-5 -2,-7 -9,-21 -29,-41 -29,-63 24,0 47,0 71,0 0,23 -20,42 -30,63 -1,2 -1,5 -1,7l0 32 18 4 -46 0z"/>
   <path class="fil1" d="M506 807l19 -4 0 -32c0,-2 -1,-5 -2,-7 -10,-21 -29,-41 -29,-63 23,0 47,0 70,0 0,23 -19,42 -29,63 -1,2 -1,5 -1,7l0 32 18 4 -46 0z"/>
   <path class="fil1" d="M612 807l19 -4 0 -32c0,-2 -1,-5 -2,-7 -10,-21 -29,-41 -29,-63 23,0 47,0 70,0 0,23 -19,42 -29,63 -1,2 -2,5 -2,7l0 32 19 4 -46 0z"/>
   <path class="fil1" d="M718 807l18 -4 0 -32c0,-2 0,-5 -1,-7 -10,-21 -29,-41 -29,-63 23,0 47,0 70,0 0,23 -19,42 -29,63 -1,2 -2,5 -2,7l0 32 19 4 -46 0z"/>
   <path class="fil1" d="M824 807l18 -4 0 -32c0,-2 0,-5 -1,-7 -10,-21 -30,-41 -30,-63 24,0 47,0 71,0 0,23 -20,42 -29,63 -1,2 -2,5 -2,7l0 32 19 4 -46 0z"/>
  </g>
 </g>
</svg>
