<?xml version="1.0" encoding="UTF-8"?>
<!DOCTYPE svg PUBLIC "-//W3C//DTD SVG 1.1//EN" "http://www.w3.org/Graphics/SVG/1.1/DTD/svg11.dtd">
<!-- Creator: CorelDRAW X7 -->
<svg xmlns="http://www.w3.org/2000/svg" xml:space="preserve" width="100%" height="100%" version="1.1" style="shape-rendering:geometricPrecision; text-rendering:geometricPrecision; image-rendering:optimizeQuality; fill-rule:evenodd; clip-rule:evenodd"
viewBox="0 0 847 1270"
 xmlns:xlink="http://www.w3.org/1999/xlink">
 <defs>
  <style type="text/css">
   <![CDATA[
    .fil2 {fill:black}
    .fil1 {fill:black;fill-rule:nonzero}
    .fil0 {fill:#00CCFF;fill-rule:nonzero}
   ]]>
  </style>
 </defs>
 <g id="Layer_x0020_1">
  <metadata id="CorelCorpID_0Corel-Layer"/>
  <g id="_619185296">
   <path class="fil0" d="M300 635c10,0 17,-8 17,-18l0 -53 53 0c10,0 18,-7 18,-17 0,-10 -8,-18 -18,-18l-70 0c-10,0 -18,8 -18,18l0 70c0,10 8,18 18,18z"/>
   <path class="fil0" d="M300 459c10,0 17,-8 17,-18l0 -53 53 0c10,0 18,-8 18,-18 0,-9 -8,-17 -18,-17l-70 0c-10,0 -18,8 -18,17l0 71c0,10 8,18 18,18z"/>
   <path class="fil0" d="M300 282c10,0 17,-8 17,-17l0 -53 53 0c10,0 18,-8 18,-18 0,-10 -8,-18 -18,-18l-70 0c-10,0 -18,8 -18,18l0 71c0,9 8,17 18,17z"/>
   <path class="fil0" d="M123 635c10,0 18,-8 18,-18l0 -53 53 0c10,0 18,-7 18,-17 0,-10 -8,-18 -18,-18l-71 0c-9,0 -17,8 -17,18l0 70c0,10 8,18 17,18z"/>
   <path class="fil0" d="M123 459c10,0 18,-8 18,-18l0 -53 53 0c10,0 18,-8 18,-18 0,-9 -8,-17 -18,-17l-71 0c-9,0 -17,8 -17,17l0 71c0,10 8,18 17,18z"/>
   <path class="fil0" d="M123 282c10,0 18,-8 18,-17l0 -53 53 0c10,0 18,-8 18,-18 0,-10 -8,-18 -18,-18l-71 0c-9,0 -17,8 -17,18l0 71c0,9 8,17 17,17z"/>
   <path class="fil0" d="M476 635c10,0 18,-8 18,-18l0 -53 53 0c10,0 17,-7 17,-17 0,-10 -7,-18 -17,-18l-71 0c-9,0 -17,8 -17,18l0 70c0,10 8,18 17,18z"/>
   <path class="fil0" d="M476 459c10,0 18,-8 18,-18l0 -53 53 0c10,0 17,-8 17,-18 0,-9 -7,-17 -17,-17l-71 0c-9,0 -17,8 -17,17l0 71c0,10 8,18 17,18z"/>
   <path class="fil0" d="M476 282c10,0 18,-8 18,-17l0 -53 53 0c10,0 17,-8 17,-18 0,-10 -7,-18 -17,-18l-71 0c-9,0 -17,8 -17,18l0 71c0,9 8,17 17,17z"/>
   <path class="fil0" d="M194 741c10,0 18,-8 18,-18 0,-10 -8,-17 -18,-17l-71 0c-9,0 -17,7 -17,17l0 71c0,10 8,17 17,17 10,0 18,-7 18,-17l0 -53 53 0z"/>
   <path class="fil0" d="M300 811c10,0 17,-7 17,-17l0 -53 53 0c10,0 18,-8 18,-18 0,-10 -8,-17 -18,-17l-70 0c-10,0 -18,7 -18,17l0 71c0,10 8,17 18,17z"/>
   <path class="fil0" d="M476 811c10,0 18,-7 18,-17l0 -53 53 0c10,0 17,-8 17,-18 0,-10 -7,-17 -17,-17l-71 0c-9,0 -17,7 -17,17l0 71c0,10 8,17 17,17z"/>
   <path class="fil1" d="M176 1235l-105 0 0 -282 105 0 0 17c0,10 8,18 18,18l282 0c10,0 18,-8 18,-18l0 -17 106 0 0 282 -106 0 0 -141 35 0c10,0 18,-8 18,-18 0,-10 -8,-18 -18,-18l-388 0c-10,0 -18,8 -18,18 0,10 8,18 18,18l35 0 0 141zm36 -282l0 -36 247 0 0 36 -247 0zm-18 -71c-10,0 -18,8 -18,18l0 17 -105 0 0 -782c0,-12 10,-26 21,-29l215 -67c7,-3 18,-4 28,-4 11,0 21,1 29,4l214 67c12,3 22,17 22,29l0 782 -106 0 0 -17c0,-10 -8,-18 -18,-18l-282 0zm141 -882c-14,0 -28,2 -39,5l-215 67c-25,8 -46,36 -46,63 0,271 0,835 0,1100 -94,0 42,0 -17,0 -10,0 -18,8 -18,17 0,10 8,18 18,18l635 0c9,0 17,-8 17,-18 0,-9 -8,-17 -17,-17 -60,0 76,0 -18,0 0,-265 0,-829 0,-1100 0,-27 -20,-55 -46,-63l-215 -67c-11,-3 -25,-5 -39,-5zm18 1235l0 -141 106 0 0 141 -106 0zm-36 0l-105 0 0 -141 105 0 0 141z"/>
   <path class="fil2" d="M723 176l0 0c10,0 18,8 18,18l0 35c0,10 8,18 17,18l36 0c9,0 17,-8 17,-18l0 -35c0,-10 8,-18 18,-18l0 0c10,0 18,8 18,18l0 141c0,10 -8,18 -18,18l0 0c-10,0 -18,-8 -18,-18l0 -35c0,-10 -8,-18 -17,-18l-36 0c-9,0 -17,8 -17,18l0 35c0,10 -8,18 -18,18l0 0c-10,0 -17,-8 -17,-18 0,-47 0,-94 0,-141 0,-10 7,-18 17,-18zm35 706l71 0c10,0 18,8 18,18l0 0c0,9 -8,17 -18,17l-71 0c-9,0 -17,8 -17,18l0 0c0,10 8,18 17,18l71 0c10,0 18,7 18,17l0 0c0,10 -8,18 -18,18 -35,0 -71,0 -106,0 -10,0 -17,-8 -17,-18l0 -141c0,-10 7,-18 17,-18l106 0c10,0 18,8 18,18l0 0c0,10 -8,18 -18,18l-71 0c-9,0 -17,8 -17,17l0 0c0,10 8,18 17,18zm0 282l71 0c10,0 18,8 18,18l0 0c0,10 -8,17 -18,17 -35,0 -71,0 -106,0 -10,0 -17,-7 -17,-17l0 -141c0,-10 7,-18 17,-18l0 0c10,0 18,8 18,18l0 106c0,9 8,17 17,17zm0 -511l0 105c0,10 8,18 18,18l0 0c10,0 18,-8 18,-18l0 -105c0,-10 8,-18 17,-18l18 0c10,0 18,-8 18,-18l0 0c0,-9 -8,-17 -18,-17 -35,0 -71,0 -106,0 -10,0 -17,8 -17,17l0 0c0,10 7,18 17,18l18 0c10,0 17,8 17,18zm18 -265c39,0 71,40 71,88 0,49 -32,88 -71,88 -39,0 -70,-39 -70,-88 0,-48 31,-88 70,-88zm0 35c20,0 35,24 35,53 0,29 -15,53 -35,53 -19,0 -35,-24 -35,-53 0,-29 16,-53 35,-53z"/>
  </g>
 </g>
</svg>
