<?xml version="1.0" encoding="UTF-8"?>
<!DOCTYPE svg PUBLIC "-//W3C//DTD SVG 1.1//EN" "http://www.w3.org/Graphics/SVG/1.1/DTD/svg11.dtd">
<!-- Creator: CorelDRAW X7 -->
<svg xmlns="http://www.w3.org/2000/svg" xml:space="preserve" width="100%" height="100%" version="1.1" style="shape-rendering:geometricPrecision; text-rendering:geometricPrecision; image-rendering:optimizeQuality; fill-rule:evenodd; clip-rule:evenodd"
viewBox="0 0 1270 1270"
 xmlns:xlink="http://www.w3.org/1999/xlink">
 <defs>
  <style type="text/css">
   <![CDATA[
    .fil1 {fill:black}
    .fil0 {fill:#00CCFF}
   ]]>
  </style>
 </defs>
 <g id="Layer_x0020_1">
  <metadata id="CorelCorpID_0Corel-Layer"/>
  <g id="_710645504">
   <rect class="fil0" x="529" y="28" width="35.28" height="931.44"/>
   <rect class="fil0" x="706" y="28" width="35.28" height="931.44"/>
   <rect class="fil0" x="847" y="51" width="35.28" height="908.63"/>
   <rect class="fil0" x="388" y="51" width="35.28" height="908.63"/>
   <path class="fil1" d="M635 1270c195,0 353,-32 353,-71l0 0 1 0 266 -33c8,-1 15,-8 15,-17l0 -782c0,-9 -5,-16 -13,-18l-267 -66c-1,0 -2,-1 -2,-1l0 -176c0,-59 -158,-106 -353,-106 -195,0 -353,47 -353,106l0 176c0,0 -1,1 -2,1l-267 66c-8,2 -13,9 -13,18l0 782c0,9 7,16 15,17l266 33 1 0 0 0c0,39 158,71 353,71zm353 -106l0 -845 247 61 0 753 -247 31zm-36 17c0,-356 1,-713 1,-1070 0,-5 -2,-9 -6,-13 -18,-16 -69,-32 -82,-36 -72,-20 -155,-27 -230,-27 -75,0 -158,7 -230,27 -13,4 -64,20 -81,36 -4,3 -7,8 -7,13 0,357 1,714 1,1070 0,7 4,13 10,16 25,10 72,19 87,22 71,12 147,16 220,16 73,0 149,-4 220,-16 15,-3 62,-12 87,-22 6,-3 10,-9 10,-16zm-670 -862l0 845 -247 -31 0 -753 247 -61z"/>
   <path class="fil1" d="M635 988c195,0 353,-16 353,-35l0 -36c0,20 -158,36 -353,36 -195,0 -353,-16 -353,-36l0 36c0,19 158,35 353,35z"/>
   <path class="fil1" d="M635 635c195,0 353,16 353,35l0 36c0,-20 -158,-36 -353,-36 -195,0 -353,16 -353,36l0 -36c0,-19 158,-35 353,-35z"/>
   <path class="fil1" d="M635 318c195,0 353,31 353,70l0 16 -36 0c-1,-6 -5,-11 -10,-13 -25,-11 -72,-20 -87,-22 -71,-12 -147,-16 -220,-16 -73,0 -149,4 -220,16 -15,2 -62,11 -87,22 -5,2 -9,7 -10,13l-36 0 0 -16c0,-39 158,-70 353,-70z"/>
   <rect class="fil1" x="459" y="964" width="35.28" height="270.28"/>
   <rect class="fil1" x="776" y="964" width="35.28" height="270.28"/>
   <rect class="fil1" x="626" y="985" width="17.64" height="256.41"/>
   <path class="fil0" d="M282 1058c-45,-3 -89,-6 -130,-9 -41,-3 -79,-5 -117,-8 0,10 0,21 0,31 38,4 76,7 117,10 41,4 85,8 130,12 0,-12 0,-24 0,-36zm0 -105c-45,-2 -89,-3 -130,-4 -41,-1 -79,-1 -117,-2 0,10 0,21 0,31 38,2 76,3 117,5 41,1 85,3 130,5 0,-12 0,-24 0,-35zm0 -106c-45,1 -89,2 -130,3 -41,0 -79,1 -117,2 0,11 0,21 0,32 38,-1 76,-1 117,-1 41,0 85,-1 130,-1 0,-12 0,-23 0,-35zm0 -106c-45,3 -89,6 -130,9 -41,3 -79,5 -117,8 0,10 0,21 0,31 38,-2 76,-4 117,-6 41,-2 85,-4 130,-7 0,-12 0,-23 0,-35zm0 -106c-45,5 -89,10 -130,15 -41,5 -79,9 -117,14 0,10 0,20 0,31 38,-4 76,-8 117,-12 41,-4 85,-8 130,-13 0,-11 0,-23 0,-35zm0 -106c-45,7 -89,15 -130,21 -41,7 -79,13 -117,19 0,11 0,21 0,32 38,-6 76,-12 117,-17 41,-6 85,-13 130,-19 0,-12 0,-24 0,-36zm0 -106c-45,10 -89,19 -130,28 -41,8 -79,16 -117,24 0,10 0,21 0,31 38,-7 76,-14 117,-22 41,-8 85,-17 130,-25 0,-12 0,-24 0,-36z"/>
   <path class="fil0" d="M988 1058c45,-3 89,-6 130,-9 41,-3 79,-5 117,-8 0,10 0,21 0,31 -38,4 -76,7 -117,10 -41,4 -85,8 -130,12 0,-12 0,-24 0,-36zm0 -105c45,-2 89,-3 130,-4 41,-1 79,-1 117,-2 0,10 0,21 0,31 -38,2 -76,3 -117,5 -41,1 -85,3 -130,5 0,-12 0,-24 0,-35zm0 -106c45,1 89,2 130,3 41,0 79,1 117,2 0,11 0,21 0,32 -38,-1 -76,-1 -117,-1 -41,0 -85,-1 -130,-1 0,-12 0,-23 0,-35zm0 -106c45,3 89,6 130,9 41,3 79,5 117,8 0,10 0,21 0,31 -38,-2 -76,-4 -117,-6 -41,-2 -85,-4 -130,-7 0,-12 0,-23 0,-35zm0 -106c45,5 89,10 130,15 41,5 79,9 117,14 0,10 0,20 0,31 -38,-4 -76,-8 -117,-12 -41,-4 -85,-8 -130,-13 0,-11 0,-23 0,-35zm0 -106c45,7 89,15 130,21 41,7 79,13 117,19 0,11 0,21 0,32 -38,-6 -76,-12 -117,-17 -41,-6 -85,-13 -130,-19 0,-12 0,-24 0,-36zm0 -106c45,10 89,19 130,28 41,8 79,16 117,24 0,10 0,21 0,31 -38,-7 -76,-14 -117,-22 -41,-8 -85,-17 -130,-25 0,-12 0,-24 0,-36z"/>
  </g>
 </g>
</svg>
