<?xml version="1.0" encoding="UTF-8"?>
<!DOCTYPE svg PUBLIC "-//W3C//DTD SVG 1.1//EN" "http://www.w3.org/Graphics/SVG/1.1/DTD/svg11.dtd">
<!-- Creator: CorelDRAW X7 -->
<svg xmlns="http://www.w3.org/2000/svg" xml:space="preserve" width="100%" height="100%" version="1.1" style="shape-rendering:geometricPrecision; text-rendering:geometricPrecision; image-rendering:optimizeQuality; fill-rule:evenodd; clip-rule:evenodd"
viewBox="0 0 1270 1199"
 xmlns:xlink="http://www.w3.org/1999/xlink">
 <defs>
  <style type="text/css">
   <![CDATA[
    .fil1 {fill:black}
    .fil0 {fill:#34C7F0}
   ]]>
  </style>
 </defs>
 <g id="Layer_x0020_1">
  <metadata id="CorelCorpID_0Corel-Layer"/>
  <g id="_710097952">
   <path class="fil0" d="M1187 305c-178,-54 -356,-108 -534,-162 -178,54 -357,108 -535,162 -7,2 -12,9 -12,16 0,23 0,45 0,67 0,6 13,15 17,18 15,10 33,16 51,17 2,0 4,0 6,0 46,0 116,-24 152,-56 4,-3 7,-4 12,-4l35 0c5,0 9,1 12,4 60,52 190,56 262,56 71,0 201,-4 261,-56 4,-3 8,-4 12,-4l35 0c5,0 9,1 12,4 36,32 106,56 153,56 2,0 4,0 6,0 17,-1 36,-7 50,-17 5,-3 17,-12 17,-18 0,-22 0,-44 0,-67 0,-7 -5,-14 -12,-16zm-534 -199c194,59 388,117 582,176 0,36 0,71 0,106 0,35 -55,71 -109,71 -60,0 -131,-30 -171,-61 -7,-5 -16,-5 -22,0 -40,32 -115,61 -280,61 -166,0 -241,-29 -280,-61 -7,-5 -16,-5 -22,0 -40,31 -112,61 -171,61 -55,0 -109,-36 -109,-71 0,-35 0,-70 0,-106 194,-59 388,-117 582,-176z"/>
   <path class="fil1" d="M1094 741c-25,80 -36,141 -36,247l-176 0 0 176 35 0 0 -70c48,-11 98,-11 149,-2 5,25 12,51 21,72l40 0c-21,-32 -33,-110 -33,-141 0,-12 0,-23 0,-35 0,-88 8,-154 33,-237 1,-3 2,-7 3,-10l-36 0zm-36 282c0,8 1,19 2,32 -47,-7 -95,-7 -143,3l0 -35 141 0z"/>
   <path class="fil1" d="M213 741c25,80 35,141 35,247l177 0 0 176 69 0c84,-70 95,-164 35,-282l-106 0 0 -35 83 0 19 -4 0 -32c0,-3 -1,-5 -2,-7 -10,-21 -29,-41 -29,-63 23,0 47,0 70,0 0,23 -19,42 -29,63 -1,2 -1,4 -1,7l0 32 18 4 83 0 0 -388 35 0 0 388 118 0 19 -4 0 -32c0,-3 0,-5 -2,-7 -9,-21 -29,-41 -29,-63 24,0 47,0 71,0 0,23 -20,42 -30,63 -1,2 -1,4 -1,7l0 32 18 4 48 0 0 35 -106 0c-60,118 -48,212 35,282l459 0 0 35c-423,0 -847,0 -1270,0l0 -35 180 0c21,-32 33,-110 33,-141 0,-12 0,-23 0,-35 0,-88 -8,-154 -33,-237 -2,-3 -3,-7 -4,-10l37 0zm177 423l0 -70c-49,-11 -98,-11 -149,-2 -5,25 -12,51 -22,72l171 0zm276 -1054l-13 -110 0 0 -14 110 14 -4 13 4zm71 772l-67 0 0 106 35 0c4,-35 15,-70 32,-106zm-67 141l0 141 91 0c-39,-43 -57,-90 -58,-141l-33 0zm-125 141l90 0 0 -141 -33 0c-1,51 -19,98 -57,141zm90 -176l0 -106 -67 0c17,36 28,71 32,106l35 0zm-387 35c0,8 0,19 -2,32 48,-7 96,-7 144,3l0 -35 -142 0z"/>
  </g>
 </g>
</svg>
