<?xml version="1.0" encoding="UTF-8"?>
<!DOCTYPE svg PUBLIC "-//W3C//DTD SVG 1.1//EN" "http://www.w3.org/Graphics/SVG/1.1/DTD/svg11.dtd">
<!-- Creator: CorelDRAW X7 -->
<svg xmlns="http://www.w3.org/2000/svg" xml:space="preserve" width="100%" height="100%" version="1.1" style="shape-rendering:geometricPrecision; text-rendering:geometricPrecision; image-rendering:optimizeQuality; fill-rule:evenodd; clip-rule:evenodd"
viewBox="0 0 1270 988"
 xmlns:xlink="http://www.w3.org/1999/xlink">
 <defs>
  <style type="text/css">
   <![CDATA[
    .fil1 {fill:black}
    .fil0 {fill:#34C7F0}
   ]]>
  </style>
 </defs>
 <g id="Layer_x0020_1">
  <metadata id="CorelCorpID_0Corel-Layer"/>
  <g id="_710633504">
   <path class="fil0" d="M218 115c-23,44 -59,80 -103,103 -6,4 -9,9 -9,16l0 520c0,6 3,12 9,15 44,24 80,60 103,104 4,5 9,9 16,9l802 0c7,0 12,-4 16,-9 23,-44 59,-80 103,-104 6,-3 9,-9 9,-15l0 -520c0,-7 -3,-12 -9,-16 -44,-23 -80,-59 -103,-103 -4,-6 -9,-9 -16,-9l-802 0c-7,0 -12,3 -16,9zm341 189l-97 388c-2,8 -9,14 -17,14l-149 0c-8,0 -15,-6 -17,-14l-97 -388c-1,-5 0,-11 3,-15 4,-4 8,-7 14,-7l73 0c9,0 15,5 17,13l64 241c2,8 9,13 17,13 9,0 15,-5 17,-13l64 -241c2,-8 9,-13 17,-13l74 0c5,0 10,3 14,7 3,4 4,10 3,15zm217 -22l35 0 53 0 89 0c87,0 158,71 158,159 0,88 -71,159 -158,159l-71 0c-10,0 -18,8 -18,17l0 71c0,10 -8,18 -17,18l-71 0c-10,0 -18,-8 -18,-18l0 -388c0,-10 8,-18 18,-18zm177 106l-71 0c-10,0 -18,8 -18,18l0 35 0 35c0,10 8,18 18,18l71 0c27,0 52,-24 52,-53 0,-29 -23,-53 -52,-53zm-336 -106l71 0c10,0 18,8 18,18l0 388c0,10 -8,18 -18,18l-71 0c-9,0 -17,-8 -17,-18l0 -388c0,-10 8,-18 17,-18zm-422 -201c-21,52 -62,93 -114,114 -6,3 -10,9 -10,17l0 564c0,7 4,14 10,16 52,22 93,63 114,114 3,7 9,11 17,11l846 0c8,0 14,-4 17,-11 21,-51 62,-92 114,-114 6,-2 10,-9 10,-16l0 -564c0,-8 -4,-14 -10,-17 -52,-21 -93,-62 -114,-114 -3,-6 -9,-10 -17,-10l-846 0c-8,0 -14,4 -17,10z"/>
   <path class="fil1" d="M170 48c-17,59 -63,105 -122,122 -8,2 -13,9 -13,17l0 614c0,8 5,15 13,17 59,17 105,63 122,122 2,7 9,13 17,13l896 0c8,0 15,-6 17,-13 17,-59 63,-105 122,-122 8,-2 13,-9 13,-17l0 -614c0,-8 -5,-15 -13,-17 -59,-17 -105,-63 -122,-122 -2,-8 -9,-13 -17,-13l-896 0c-8,0 -15,5 -17,13zm-12 -48l954 0c9,0 17,7 18,16 7,65 59,117 124,124 9,1 16,9 16,18l0 672c0,9 -7,17 -16,18 -65,7 -117,59 -124,124 -1,9 -9,16 -18,16l-954 0c-9,0 -17,-7 -18,-16 -7,-65 -59,-117 -124,-124 -9,-1 -16,-9 -16,-18l0 -672c0,-9 7,-17 16,-18 65,-7 117,-59 124,-124 1,-9 9,-16 18,-16z"/>
  </g>
 </g>
</svg>
