<?xml version="1.0" standalone="no"?>
<!DOCTYPE svg PUBLIC "-//W3C//DTD SVG 1.1//EN" "http://www.w3.org/Graphics/SVG/1.1/DTD/svg11.dtd" >
<svg xmlns="http://www.w3.org/2000/svg">
<metadata>Generated by IcoMoon</metadata>
<defs>
<font id="icomoon" horiz-adv-x="512">
<font-face units-per-em="512" ascent="480" descent="-32" />
<missing-glyph horiz-adv-x="512" />
<glyph unicode="&#x20;" d="" horiz-adv-x="256" />
<glyph unicode="&#xe600;" d="M512 281.475l-176.89 25.704-79.11 160.291-79.108-160.291-176.892-25.704 128-124.769-30.216-176.176 158.216 83.179 158.216-83.179-30.217 176.176 128.001 124.769zM256 103.251l-111.731-58.74 21.338 124.415-90.393 88.111 124.92 18.152 55.866 113.198 55.868-113.198 124.918-18.152-90.394-88.111 21.339-124.415-111.731 58.74z" />
<glyph unicode="&#xe601;" d="M512 281.475l-176.89 25.704-79.11 160.291-79.108-160.291-176.892-25.704 128-124.769-30.216-176.176 158.216 83.179 158.216-83.179-30.217 176.176 128.001 124.769zM256 103.251l-0.471-0.248 0.471 285.384 55.868-113.198 124.918-18.152-90.394-88.111 21.339-124.415-111.731 58.74z" />
<glyph unicode="&#xe602;" d="M512 281.475l-176.89 25.704-79.11 160.291-79.108-160.291-176.892-25.704 128-124.769-30.216-176.176 158.216 83.179 158.216-83.179-30.217 176.176 128.001 124.769z" />
<glyph unicode="&#xe603;" d="M141.209 122.265c-57.907 62.285-56.883 159.872 3.251 220.442 24.627 24.781 55.398 39.577 87.398 44.442l-1.767 53.171c-44.903-5.453-88.371-25.497-122.803-60.16-80.615-81.203-81.561-212.224-3.149-295.219l-44.569-44.877 141.056-7.705-0.384 149.351-59.034-59.443zM311.347 428.416l0.384-149.351 59.059 59.469c57.907-62.285 56.909-159.872-3.251-220.442-24.627-24.807-55.399-39.577-87.424-44.442l1.767-53.145c44.928 5.453 88.397 25.498 122.829 60.185 80.589 81.178 81.587 212.224 3.123 295.194l44.57 44.877-141.056 7.655z" />
<glyph unicode="&#xe604;" d="M292.787 370.791c-10.701-10.445-115.251-120.218-115.251-120.218-5.709-5.581-8.55-12.877-8.55-20.173s2.841-14.592 8.55-20.173c0 0 104.551-109.773 115.251-120.192 10.701-10.445 29.952-11.161 41.37 0 11.392 11.136 12.288 26.675-0.026 40.32l-95.923 100.045 95.923 100.045c12.313 13.67 11.418 29.209 0.026 40.345-11.443 11.136-30.695 10.445-41.37 0z" />
<glyph unicode="&#xe605;" d="M396.365 267.187c-10.419-10.701-120.192-115.277-120.192-115.277-5.581-5.709-12.877-8.55-20.173-8.55-7.322 0-14.618 2.841-20.173 8.55 0 0-109.773 104.576-120.218 115.277-10.419 10.701-11.136 29.926 0 41.37 11.162 11.417 26.701 12.313 40.345 0l100.045-95.949 100.019 95.923c13.671 12.314 29.235 11.418 40.346 0 11.161-11.417 10.471-30.669 0-41.344z" />
<glyph unicode="&#xe606;" d="M396.365 193.613c-10.419 10.701-120.192 115.251-120.192 115.251-5.581 5.709-12.877 8.576-20.173 8.576-7.322 0-14.618-2.867-20.173-8.576 0 0-109.773-104.551-120.218-115.251-10.419-10.701-11.136-29.952 0-41.37 11.162-11.392 26.701-12.313 40.345 0l100.045 95.923 100.019-95.923c13.671-12.313 29.235-11.392 40.346 0 11.161 11.443 10.471 30.695 0 41.37z" />
<glyph unicode="&#xe607;" d="M219.213 370.791c10.701-10.445 115.251-120.218 115.251-120.218 5.735-5.581 8.576-12.877 8.576-20.173s-2.841-14.592-8.576-20.173c0 0-104.55-109.773-115.251-120.192-10.701-10.445-29.927-11.161-41.369 0-11.417 11.136-12.314 26.675 0 40.32l95.949 100.045-95.923 100.045c-12.314 13.67-11.417 29.209 0 40.345s30.669 10.445 41.344 0z" />
<glyph unicode="&#xe608;" d="M368.615 40.499c6.861-6.938 6.861-18.125 0-25.063s-17.945-6.938-24.807 0l-200.448 202.419c-6.861 6.938-6.861 18.151 0 25.063l200.448 202.445c6.861 6.938 17.945 6.938 24.807 0s6.861-18.125 0-25.063l-182.784-189.901 182.784-189.901z" />
<glyph unicode="&#xe609;" d="M66.099 343.014c-6.938 6.861-18.151 6.861-25.063 0-6.912-6.835-6.912-17.946 0-24.807l202.445-200.448c6.938-6.861 18.125-6.861 25.063 0l202.445 200.448c6.912 6.861 6.938 17.945 0 24.806s-18.176 6.861-25.063 0.026l-189.927-182.81-189.901 182.784z" />
<glyph unicode="&#xe60a;" d="M445.901 117.785c6.938-6.861 18.151-6.861 25.063 0 6.938 6.861 6.938 17.945 0 24.807l-202.445 200.448c-6.912 6.861-18.125 6.861-25.037 0l-202.445-200.448c-6.912-6.861-6.938-17.945 0-24.807s18.125-6.861 25.063 0l189.901 182.81 189.901-182.81z" />
<glyph unicode="&#xe60b;" d="M143.352 40.499c-6.861-6.938-6.861-18.125 0-25.063s17.946-6.938 24.806 0l200.448 202.419c6.861 6.938 6.861 18.151 0 25.063l-200.448 202.445c-6.861 6.938-17.946 6.938-24.806 0s-6.861-18.125 0-25.063l182.784-189.901-182.784-189.901z" />
<glyph unicode="&#xe60c;" d="M371.498 328.832c-16.64 16.661-43.69 16.661-60.33 0l-55.168-55.168-55.168 55.168c-16.64 16.661-43.69 16.661-60.331 0-16.662-16.661-16.662-43.67 0-60.33l55.147-55.168-55.147-55.168c-16.662-16.661-16.662-43.669 0-60.331 8.32-8.341 19.243-12.502 30.166-12.502s21.845 4.16 30.166 12.502l55.168 55.168 55.168-55.168c8.32-8.341 19.243-12.502 30.166-12.502s21.846 4.16 30.166 12.502c16.661 16.661 16.661 43.669 0 60.331l-55.147 55.168 55.147 55.168c16.661 16.661 16.661 43.669 0 60.33z" />
<glyph unicode="&#xe60d;" d="M256 384c-94.272 0-170.667-76.416-170.667-170.666s76.394-170.667 170.667-170.667 170.667 76.416 170.667 170.667-76.394 170.667-170.667 170.667zM335.082 164.416c8.341-8.341 8.341-21.824 0-30.166-4.16-4.16-9.622-6.25-15.082-6.25s-10.923 2.091-15.082 6.25l-48.918 48.918-48.917-48.918c-4.16-4.16-9.621-6.25-15.083-6.25s-10.923 2.091-15.083 6.25c-8.341 8.341-8.341 21.824 0 30.166l48.917 48.918-48.917 48.918c-8.341 8.341-8.341 21.824 0 30.166s21.824 8.341 30.166 0l48.917-48.917 48.918 48.917c8.341 8.341 21.824 8.341 30.166 0s8.341-21.824 0-30.166l-48.918-48.918 48.918-48.918z" />
<glyph unicode="&#xe60e;" d="M256 405.333c-105.877 0-192-86.144-192-192s86.123-192 192-192 192 86.144 192 192-86.123 192-192 192zM256 64c-82.326 0-149.333 66.987-149.333 149.334s67.008 149.334 149.333 149.334 149.333-66.986 149.333-149.334-67.008-149.333-149.333-149.333zM271.082 213.333l56.448 56.448c4.139 4.139 4.139 10.923 0 15.082-4.16 4.139-10.944 4.139-15.082 0l-56.448-56.448-56.448 56.47c-4.16 4.138-10.944 4.138-15.083 0-4.16-4.16-4.16-10.944 0-15.083l56.448-56.47-56.448-56.448c-4.16-4.16-4.16-10.944 0-15.082 2.070-2.091 4.8-3.136 7.53-3.136s5.462 1.046 7.552 3.115l56.448 56.469 56.448-56.448c2.091-2.091 4.822-3.136 7.552-3.136s5.462 1.046 7.552 3.115c4.139 4.139 4.139 10.923 0 15.082l-56.469 56.469z" />
<glyph unicode="&#xe60f;" d="M341.334 64c-17.11 0-33.173 6.656-45.269 18.752l-40.064 40.086-40.085-40.086c-24.171-24.171-66.326-24.171-90.517 0-12.075 12.075-18.73 28.16-18.73 45.248s6.656 33.173 18.752 45.269l40.064 40.064-40.064 40.086c-12.096 12.075-18.752 28.16-18.752 45.248s6.656 33.173 18.752 45.269c24.171 24.149 66.326 24.171 90.518-0.022l40.064-40.085 40.086 40.085c24.171 24.171 66.325 24.171 90.517 0 12.075-12.075 18.731-28.16 18.731-45.248s-6.656-33.173-18.752-45.269l-40.064-40.064 40.064-40.086c12.096-12.075 18.752-28.16 18.752-45.248s-6.656-33.173-18.752-45.269c-12.075-12.075-28.139-18.731-45.248-18.731zM256 183.168l70.25-70.25c8.064-8.064 22.123-8.043 30.166 0 4.032 4.032 6.25 9.365 6.25 15.082s-2.219 11.050-6.25 15.082l-70.229 70.25 70.23 70.25c4.032 4.032 6.25 9.387 6.25 15.083s-2.219 11.050-6.25 15.083c-8.064 8.085-22.123 8.064-30.166 0.021l-70.25-70.272-70.25 70.251c-8.064 8.064-22.123 8.042-30.166 0-4.032-4.032-6.25-9.387-6.25-15.083s2.219-11.050 6.25-15.083l70.23-70.25-70.23-70.25c-4.032-4.032-6.25-9.365-6.25-15.082s2.219-11.050 6.25-15.082c8.064-8.086 22.123-8.064 30.166-0.022l70.25 70.272z" />
<glyph unicode="&#xe610;" d="M432 480c44.182 0 80-35.817 80-80 0-18.010-5.955-34.629-16-48l-32-32-112 112 32 32c13.371 10.045 29.989 16 48 16zM32 112l-32-144 144 32 296 296-112 112-296-296zM357.789 298.211l-224-224-27.578 27.578 224 224 27.578-27.578z" />
<glyph unicode="&#xe611;" d="M352 160c-32-32-32-64-64-64s-64 32-96 64-64 64-64 96 32 32 64 64-64 128-96 128-96-96-96-96c0-64 65.75-193.75 128-256s192-128 256-128c0 0 96 64 96 96s-96 128-128 96z" />
<glyph unicode="&#xe612;" d="M256 480c-88.366 0-160-71.634-160-160 0-160 160-352 160-352s160 192 160 352c0 88.366-71.635 160-160 160zM256 224c-53.020 0-96 42.98-96 96s42.98 96 96 96 96-42.98 96-96-42.98-96-96-96z" />
<glyph unicode="&#xe613;" d="M256 480c-88.366 0-160-71.634-160-160 0-160 160-352 160-352s160 192 160 352c0 88.366-71.635 160-160 160zM256 222c-54.124 0-98 43.876-98 98s43.876 98 98 98 98-43.876 98-98-43.876-98-98-98zM194 320c0 34.241 27.758 62 62 62s62-27.759 62-62c0-34.241-27.759-62-62-62s-62 27.759-62 62z" />
<glyph unicode="&#xe614;" d="M256 480c-141.385 0-256-114.615-256-256s114.615-256 256-256 256 114.615 256 256-114.615 256-256 256zM256 16c-114.875 0-208 93.125-208 208s93.125 208 208 208 208-93.125 208-208-93.125-208-208-208zM304 272l-144 80h-32v-32l80-144 144-80h32v32l-80 144zM256 192c-17.673 0-32 14.327-32 32s14.327 32 32 32c17.673 0 32-14.327 32-32s-14.327-32-32-32z" />
<glyph unicode="&#xe615;" d="M0 384l160 64v-384l-160-64zM352 384v-384l-160 53.333v384zM512 448v-384l-128-51.2v384z" />
<glyph unicode="&#xe616;" d="M336 384l-160 64-176-64v-384l176 64 160-64 176 64v384l-176-64zM192 407.135l128-51.2v-315.069l-128 51.199v315.070zM32 361.586l128 46.545v-315.9l-128-46.544v315.899zM480 86.414l-128-46.546v315.9l128 46.545v-315.899z" />
<glyph unicode="&#xe617;" d="M192 416c0 35.346 28.654 64 64 64s64-28.654 64-64c0-35.346-28.654-64-64-64s-64 28.654-64 64zM327.765 359.765c0 35.346 28.654 64 64 64s64-28.654 64-64c0-35.346-28.654-64-64-64s-64 28.654-64 64zM416 224c0 17.673 14.327 32 32 32s32-14.327 32-32c0-17.673-14.327-32-32-32s-32 14.327-32 32zM359.765 88.235c0 17.673 14.327 32 32 32s32-14.327 32-32c0-17.673-14.327-32-32-32s-32 14.327-32 32zM224.001 32c0 0 0 0 0 0 0 17.673 14.327 32 32 32s32-14.327 32-32c0 0 0 0 0 0 0-17.673-14.327-32-32-32s-32 14.327-32 32zM88.236 88.235c0 0 0 0 0 0 0 17.673 14.327 32 32 32s32-14.327 32-32c0 0 0 0 0 0 0-17.673-14.327-32-32-32s-32 14.327-32 32zM72.236 359.765c0 0 0 0 0 0 0 26.51 21.49 48 48 48s48-21.49 48-48c0 0 0 0 0 0 0-26.51-21.49-48-48-48s-48 21.49-48 48zM28 224c0 19.882 16.117 36 36 36s36-16.118 36-36c0-19.882-16.118-36-36-36s-36 16.118-36 36z" />
<glyph unicode="&#xe618;" d="M512 224c-0.639 33.431-7.892 66.758-21.288 97.231-13.352 30.5-32.731 58.129-56.521 80.96-23.776 22.848-51.972 40.91-82.492 52.826-30.502 11.962-63.298 17.676-95.699 16.983-32.405-0.641-64.666-7.687-94.167-20.678-29.524-12.948-56.271-31.735-78.367-54.788-22.112-23.041-39.58-50.354-51.093-79.899-11.557-29.531-17.064-61.26-16.373-92.635 0.643-31.38 7.482-62.574 20.067-91.103 12.544-28.55 30.738-54.414 53.055-75.774 22.305-21.377 48.736-38.252 77.307-49.36 28.559-11.152 59.223-16.451 89.571-15.763 30.354 0.645 60.481 7.277 88.038 19.457 27.575 12.141 52.558 29.74 73.183 51.322 20.641 21.57 36.922 47.118 47.627 74.715 6.517 16.729 10.94 34.2 13.271 51.899 0.623-0.036 1.249-0.060 1.881-0.060 17.673 0 32 14.326 32 32 0 0.898-0.047 1.786-0.119 2.666h0.119zM461.153 139.026c-11.736-26.601-28.742-50.7-49.589-70.59-20.835-19.905-45.5-35.593-72.122-45.895-26.614-10.339-55.145-15.226-83.442-14.541-28.302 0.649-56.298 6.868-81.91 18.237-25.625 11.333-48.842 27.745-67.997 47.856-19.169 20.099-34.264 43.882-44.161 69.529-9.935 25.642-14.614 53.107-13.932 80.378 0.651 27.276 6.664 54.206 17.627 78.845 10.929 24.65 26.749 46.985 46.123 65.405 19.365 18.434 42.265 32.935 66.937 42.428 24.669 9.53 51.068 14.003 77.313 13.322 26.25-0.653 52.114-6.459 75.781-17.017 23.676-10.525 45.128-25.751 62.812-44.391 17.698-18.629 31.605-40.647 40.695-64.344 9.124-23.696 13.391-49.029 12.712-74.248h0.119c-0.072-0.88-0.119-1.768-0.119-2.666 0-16.506 12.496-30.087 28.543-31.812-3.112-17.411-8.265-34.409-15.39-50.496z" />
<glyph unicode="&#xe619;" d="M252.851 465.894c-130.048-1.741-234.087-108.57-232.345-238.643 1.741-130.099 108.595-234.087 238.643-232.371 130.073 1.741 234.112 108.595 232.346 238.643-1.741 130.099-108.595 234.112-238.643 232.371zM253.286 435.2c35.072 0.487 68.199-7.936 97.28-23.065l-31.693-52.839c-18.995 9.242-40.32 14.464-62.873 14.464-22.528 0-43.853-5.222-62.848-14.49l-31.667 52.813c27.494 14.336 58.675 22.656 91.802 23.117zM127.129 167.552l-52.787-31.642c-14.336 27.469-22.656 58.649-23.091 91.751-0.486 35.097 7.936 68.224 23.066 97.28l52.813-31.719c-9.267-18.97-14.49-40.269-14.49-62.823 0-22.528 5.222-43.853 14.489-62.848zM258.739 25.625c-35.072-0.486-68.224 7.936-97.28 23.065l31.693 52.839c18.995-9.267 40.32-14.49 62.848-14.49 22.553 0 43.879 5.197 62.848 14.464l31.667-52.787c-27.495-14.31-58.649-22.63-91.776-23.091zM256 117.785c-62.208 0-112.615 50.432-112.615 112.615 0 62.208 50.432 112.64 112.615 112.64 62.233 0 112.64-50.432 112.64-112.64s-50.406-112.615-112.64-112.615zM384.87 167.552c9.267 18.995 14.49 40.32 14.49 62.848 0 22.553-5.223 43.853-14.49 62.848l52.787 31.693c14.336-27.495 22.681-58.649 23.117-91.776 0.461-35.098-7.962-68.224-23.091-97.28l-52.813 31.667z" />
<glyph unicode="&#xe61a;" d="M256 465.92c-130.073 0-235.52-105.472-235.52-235.52 0-130.073 105.447-235.52 235.52-235.52s235.52 105.447 235.52 235.52c0 130.074-105.447 235.52-235.52 235.52zM256 46.080c-101.811 0-184.32 82.534-184.32 184.32s82.509 184.32 184.32 184.32 184.32-82.534 184.32-184.32-82.509-184.32-184.32-184.32zM273.92 363.52h-35.84v-140.544l87.168-87.168 25.344 25.344-76.672 76.672z" />
<glyph unicode="&#xe61b;" d="M435.2 409.6h-23.040v-51.2h-81.92v51.2h-148.48v-51.2h-81.92v51.2h-23.040c-28.16 0-51.2-23.040-51.2-51.2v-307.2c0-28.16 23.040-51.2 51.2-51.2h358.4c28.16 0 51.2 23.040 51.2 51.2v307.2c0 28.16-23.040 51.2-51.2 51.2zM435.2 51.2h-358.4v204.8h358.4v-204.8zM158.72 460.8h-35.84v-87.040h35.84v87.040zM389.12 460.8h-35.84v-87.040h35.84v87.040z" />
<glyph unicode="&#xe61c;" d="M499.507 26.061l-228.045 400.154c-3.149 5.53-9.063 8.935-15.463 8.935s-12.288-3.405-15.463-8.935l-228.019-400.154c-3.098-5.427-3.046-12.058 0.128-17.433s9.011-8.678 15.309-8.678h456.064c6.247 0 12.109 3.303 15.309 8.678 3.175 5.376 3.226 12.007 0.179 17.433zM284.16 51.149h-56.32v51.2h56.32v-51.2zM284.16 140.749h-56.32v153.6h56.32v-153.6z" />
</font></defs></svg>