<?xml version="1.0" standalone="no"?>
<!DOCTYPE svg PUBLIC "-//W3C//DTD SVG 1.1//EN" "http://www.w3.org/Graphics/SVG/1.1/DTD/svg11.dtd" >
<svg xmlns="http://www.w3.org/2000/svg" xmlns:xlink="http://www.w3.org/1999/xlink" version="1.1">
<metadata>
Created by FontForge 20150824 at Fri May 13 02:19:28 2016
 By Everything Fonts
Copyright (c) 1990 Neufville SL, Copyright (c) 1990-2000 ParaType, Inc. All Rights Reserved. Futura is a registered trade mark of Neufville SL.
</metadata>
<defs>
<font id="FuturaDemiC" horiz-adv-x="568" >
  <font-face 
    font-family="FuturaDemiC"
    font-weight="600"
    font-stretch="normal"
    units-per-em="1000"
    panose-1="4 0 7 0 0 0 0 0 0 0"
    ascent="750"
    descent="-250"
    x-height="433"
    cap-height="667"
    bbox="-26 -250 1140 920"
    underline-thickness="50"
    underline-position="-100"
    unicode-range="U+0020-2122"
  />
<missing-glyph horiz-adv-x="233" 
 />
    <glyph glyph-name=".notdef" horiz-adv-x="233" 
 />
    <glyph glyph-name=".null" horiz-adv-x="0" 
 />
    <glyph glyph-name="nonmarkingreturn" horiz-adv-x="333" 
 />
    <glyph glyph-name="space" unicode=" " horiz-adv-x="233" 
 />
    <glyph glyph-name="space" unicode="&#xa0;" horiz-adv-x="233" 
 />
    <glyph glyph-name="exclam" unicode="!" horiz-adv-x="252" 
d="M188 203h-124v464h124v-464zM48 65q0 33 22.5 55.5t55.5 22.5t55.5 -22.5t22.5 -55.5t-22.5 -55.5t-55.5 -22.5t-55.5 22.5t-22.5 55.5z" />
    <glyph glyph-name="quotedbl" unicode="&#x22;" horiz-adv-x="400" 
d="M178 667l-23 -268h-90l-23 268h136zM358 667l-23 -268h-90l-23 268h136z" />
    <glyph glyph-name="numbersign" unicode="#" horiz-adv-x="600" 
d="M420 0h-122l30 186h-94l-30 -186h-122l30 186h-102l17 104h102l16 101h-102l17 104h102l28 172h122l-28 -172h94l28 172h122l-28 -172h102l-17 -104h-102l-16 -101h102l-17 -104h-102zM345 290l16 101h-94l-16 -101h94z" />
    <glyph glyph-name="dollar" unicode="$" 
d="M264 761h62v-96q88 -6 154 -75l-66 -84q-41 54 -105 54q-41 0 -64 -21t-23 -50q0 -9 3 -17.5t6.5 -14.5t11.5 -12.5t13.5 -10.5t17.5 -9.5t17.5 -8t19.5 -8t19 -7.5q91 -40 121 -68q51 -47 51 -124q0 -78 -47.5 -135t-128.5 -72v-101h-62v99q-89 5 -157 57q-37 28 -59 62
l75 77q59 -88 148 -88q45 0 73 23t28 65q0 28 -18.5 48.5t-73.5 44.5q-5 2 -20 8.5t-20 9t-17.5 8t-18.5 9t-16.5 9.5t-17.5 11.5t-15 12t-15 14.5q-43 46 -43 117q0 13 3 28t11.5 40t30.5 49t54 40q30 16 68 20v96z" />
    <glyph glyph-name="percent" unicode="%" horiz-adv-x="774" 
d="M198 675q77 0 122.5 -44.5t45.5 -113.5t-45.5 -113.5t-122.5 -44.5t-122.5 44.5t-45.5 113.5t45.5 113.5t122.5 44.5zM198 431q37 0 60.5 24t23.5 62t-23.5 62t-60.5 24t-60.5 -24t-23.5 -62t23.5 -62t60.5 -24zM162 3l397 686l53 -30l-397 -687zM576 306
q77 0 122.5 -44.5t45.5 -113.5t-45.5 -113.5t-122.5 -44.5t-122.5 44.5t-45.5 113.5t45.5 113.5t122.5 44.5zM576 62q37 0 60.5 24t23.5 62t-23.5 62t-60.5 24t-60.5 -24t-23.5 -62t23.5 -62t60.5 -24z" />
    <glyph glyph-name="ampersand" unicode="&#x26;" horiz-adv-x="710" 
d="M578 324l76 -75q-36 -45 -72 -81l-15 -15l135 -153h-161l-65 75q-100 -90 -215 -90q-97 0 -153 57t-56 134q0 105 107 169l52 31q-67 67 -67 140q0 68 48 117t136 49q83 0 131 -47t48 -112q0 -91 -94 -148l-28 -17l110 -126q54 53 83 92zM403 157l-126 145
q-95 -50 -95 -115q0 -38 28 -63t70 -25q65 0 123 58zM294 463l29 -36l30 21q46 32 46 74q0 27 -16.5 46.5t-48.5 19.5q-33 0 -50.5 -18.5t-17.5 -43.5q0 -29 28 -63z" />
    <glyph glyph-name="quotesingle" unicode="'" horiz-adv-x="220" 
d="M178 667l-23 -268h-90l-23 268h136z" />
    <glyph glyph-name="parenleft" unicode="(" horiz-adv-x="320" 
d="M264 -117l-97 -53q-39 70 -64 168q-35 134 -35 300t35 300q25 98 64 168l97 -53q-32 -66 -50 -143q-30 -131 -30 -272t30 -272q18 -77 50 -143z" />
    <glyph glyph-name="parenright" unicode=")" horiz-adv-x="320" 
d="M56 713l97 53q39 -70 64 -168q35 -134 35 -300t-35 -300q-25 -98 -64 -168l-97 53q32 66 50 143q30 131 30 272t-30 272q-18 77 -50 143z" />
    <glyph glyph-name="asterisk" unicode="*" 
d="M144 681l114 -58l-20 126h92l-20 -126l114 59l28 -88l-127 -20l91 -90l-75 -54l-57 115l-57 -116l-75 54l91 91l-127 19z" />
    <glyph glyph-name="plus" unicode="+" horiz-adv-x="500" 
d="M33 283v112h156v156h122v-156h156v-112h-156v-156h-122v156h-156z" />
    <glyph glyph-name="comma" unicode="," horiz-adv-x="328" 
d="M4 -131l106 269l112 -13l-141 -265z" />
    <glyph glyph-name="hyphen" unicode="-" horiz-adv-x="340" 
d="M40 174v112h260v-112h-260z" />
    <glyph glyph-name="hyphen" unicode="&#xad;" horiz-adv-x="340" 
d="M40 174v112h260v-112h-260z" />
    <glyph glyph-name="period" unicode="." horiz-adv-x="252" 
d="M48 65q0 33 22.5 55.5t55.5 22.5t55.5 -22.5t22.5 -55.5t-22.5 -55.5t-55.5 -22.5t-55.5 22.5t-22.5 55.5z" />
    <glyph glyph-name="slash" unicode="/" horiz-adv-x="550" 
d="M0 -143l382 884l88 -40l-382 -884z" />
    <glyph glyph-name="zero" unicode="0" 
d="M284 -15q-107 0 -182.5 92.5t-75.5 256.5q0 163 75.5 255.5t182.5 92.5t182.5 -92.5t75.5 -256.5q0 -163 -75.5 -255.5t-182.5 -92.5zM284 570q-49 0 -88.5 -58.5t-39.5 -177.5t39 -178t89 -59t89 59t39 178t-39.5 177.5t-88.5 58.5z" />
    <glyph glyph-name="one" unicode="1" 
d="M228 0v555h-96v112h226v-667h-130z" />
    <glyph glyph-name="two" unicode="2" 
d="M18 0l196 223q96 112 114 139q39 58 39 107q0 45 -28.5 73t-70.5 28q-48 0 -76 -32.5t-30 -78.5h-134q4 101 69 162t165 61q110 0 172.5 -63t62.5 -149q0 -48 -22 -96t-42 -72.5t-57 -64.5l-115 -125h241v-112h-484z" />
    <glyph glyph-name="three" unicode="3" 
d="M173 493h-122q9 89 69 139t148 50q96 0 152.5 -50t56.5 -134q0 -97 -77 -140q102 -42 102 -159q0 -100 -67.5 -157t-170.5 -57q-98 0 -165 56.5t-75 150.5h130q6 -43 35 -69t76 -26q52 0 79.5 31.5t27.5 74.5q0 42 -27.5 73t-83.5 31h-17v94h18q45 0 68 26.5t23 64.5
q0 40 -24 64t-64 24q-37 0 -63.5 -23t-28.5 -64z" />
    <glyph glyph-name="four" unicode="4" 
d="M470 679v-457h78v-104h-78v-118h-122v118h-326v58l331 503h117zM176 222h172v265z" />
    <glyph glyph-name="five" unicode="5" 
d="M472 667v-112h-222l-24 -105q26 4 44 4q101 0 166.5 -60.5t65.5 -165.5q0 -103 -65.5 -173t-195.5 -70q-128 0 -215 85l43 112q69 -85 169 -85q60 0 97 36t37 93q0 56 -39 95t-112 39q-71 0 -128 -43h-8l79 350h308z" />
    <glyph glyph-name="six" unicode="6" 
d="M317 695l92 -70l-158 -202q37 16 75 16q86 0 148 -58.5t62 -158.5q0 -98 -64 -167.5t-189 -69.5q-121 0 -187 66.5t-66 163.5t84 208zM283 89q53 0 88 35t35 88t-35 88t-88 35t-88 -35t-35 -88t35 -88t88 -35z" />
    <glyph glyph-name="seven" unicode="7" 
d="M55 40l301 515h-310v112h514l-406 -695z" />
    <glyph glyph-name="eight" unicode="8" 
d="M397 348q55 -18 87 -63t32 -103q0 -85 -63.5 -141t-168.5 -56t-168.5 56t-63.5 141q0 58 32 103t87 63q-42 21 -69 58.5t-27 89.5q0 78 55 132t154 54t154 -54t55 -132q0 -52 -27 -89.5t-69 -58.5zM284 402q41 0 67 26t26 67t-26 67t-67 26t-67 -26t-26 -67t26 -67
t67 -26zM284 87q44 0 73 29.5t29 74.5t-29 74.5t-73 29.5t-73 -29.5t-29 -74.5t29 -74.5t73 -29.5z" />
    <glyph glyph-name="nine" unicode="9" 
d="M251 -28l-92 70l158 202q-37 -16 -75 -16q-86 0 -148 58.5t-62 158.5q0 98 64 167.5t189 69.5q121 0 187 -66.5t66 -163.5t-84 -208zM285 578q-53 0 -88 -35t-35 -88t35 -88t88 -35t88 35t35 88t-35 88t-88 35z" />
    <glyph glyph-name="colon" unicode=":" horiz-adv-x="252" 
d="M48 370q0 33 22.5 55.5t55.5 22.5t55.5 -22.5t22.5 -55.5t-22.5 -55.5t-55.5 -22.5t-55.5 22.5t-22.5 55.5zM48 65q0 33 22.5 55.5t55.5 22.5t55.5 -22.5t22.5 -55.5t-22.5 -55.5t-55.5 -22.5t-55.5 22.5t-22.5 55.5z" />
    <glyph glyph-name="semicolon" unicode=";" horiz-adv-x="328" 
d="M84 370q0 33 22.5 55.5t55.5 22.5t55.5 -22.5t22.5 -55.5t-22.5 -55.5t-55.5 -22.5t-55.5 22.5t-22.5 55.5zM4 -131l106 269l112 -13l-141 -265z" />
    <glyph glyph-name="less" unicode="&#x3c;" horiz-adv-x="500" 
d="M161 334l306 -150v-120l-434 218v104l434 218v-120z" />
    <glyph glyph-name="equal" unicode="=" horiz-adv-x="500" 
d="M33 372v106h434v-106h-434zM33 200v106h434v-106h-434z" />
    <glyph glyph-name="greater" unicode="&#x3e;" horiz-adv-x="500" 
d="M339 334l-306 150v120l434 -218v-104l-434 -218v120z" />
    <glyph glyph-name="question" unicode="?" horiz-adv-x="490" 
d="M283 203h-124v196q17 -4 36 -4q64 0 93.5 30.5t29.5 69.5q0 34 -20.5 56.5t-54.5 22.5q-24 0 -40 -10t-22 -26t-7.5 -24.5t-1.5 -16.5v-6h-130v6q0 87 58 136t145 49q90 0 146.5 -51t56.5 -136q0 -72 -44 -123.5t-121 -63.5v-105zM143 65q0 33 22.5 55.5t55.5 22.5
t55.5 -22.5t22.5 -55.5t-22.5 -55.5t-55.5 -22.5t-55.5 22.5t-22.5 55.5z" />
    <glyph glyph-name="at" unicode="@" horiz-adv-x="734" 
d="M468 450l8 42h84l-40 -203q-4 -20 -4 -34q0 -34 26 -34q22 0 46 33q39 53 39 125q0 90 -61.5 157t-177.5 67q-87 0 -151 -43.5t-93 -104.5t-29 -128q0 -83 44 -151.5t117 -95.5q48 -17 111 -17q96 0 187 33l19 -76q-95 -32 -200 -32q-160 0 -255 88q-53 49 -79 115.5
t-26 136.5q0 155 101.5 252.5t253.5 97.5q147 0 230 -86t83 -206q0 -100 -50.5 -166.5t-114.5 -66.5q-28 0 -49.5 14.5t-27.5 41.5q-46 -64 -123 -64q-60 0 -100.5 41.5t-40.5 115.5q0 92 53.5 146t120.5 54q69 0 99 -52zM358 230q34 0 61 31t27 80q0 31 -16.5 52.5
t-48.5 21.5q-38 0 -64.5 -31.5t-26.5 -77.5q0 -37 20.5 -56.5t47.5 -19.5z" />
    <glyph glyph-name="A" unicode="A" horiz-adv-x="672" 
d="M530 0l-59 140h-269l-59 -140h-141l289 681h98l281 -681h-140zM243 246h190l-94 240z" />
    <glyph glyph-name="B" unicode="B" horiz-adv-x="570" 
d="M76 667h165q109 0 163 -42q62 -48 62 -138q0 -89 -75 -131q51 -8 87 -42q48 -46 48 -125q0 -84 -57 -135q-61 -54 -169 -54h-224v667zM206 561v-171h37q10 0 18.5 0.5t25 5.5t28 13.5t20.5 26t9 41.5q0 43 -28 63.5t-72 20.5h-38zM206 290v-184h56q58 0 89 18
q41 24 41 77q0 54 -49 76q-28 13 -89 13h-48z" />
    <glyph glyph-name="C" unicode="C" horiz-adv-x="604" 
d="M560 176v-152q-74 -39 -165 -39q-146 0 -244 93q-107 103 -107 255q0 162 107 261q94 88 245 88q88 0 164 -41v-152q-65 75 -161 75q-98 0 -159.5 -68.5t-61.5 -164.5q0 -105 68 -166.5t158 -61.5q94 0 156 73z" />
    <glyph glyph-name="D" unicode="D" horiz-adv-x="670" 
d="M76 667h174q79 0 138 -13.5t110 -51.5q61 -46 94.5 -116t33.5 -153q0 -175 -134 -269q-54 -38 -110 -51t-134 -13h-172v667zM206 555v-443h40q102 0 163 44q39 28 61 75.5t22 101.5q0 53 -21.5 100.5t-60.5 77.5q-59 44 -164 44h-40z" />
    <glyph glyph-name="E" unicode="E" horiz-adv-x="496" 
d="M446 667v-112h-240v-149h230v-112h-230v-182h240v-112h-370v667h370z" />
    <glyph glyph-name="F" unicode="F" horiz-adv-x="466" 
d="M430 667v-112h-224v-149h210v-112h-210v-294h-130v667h354z" />
    <glyph glyph-name="G" unicode="G" horiz-adv-x="764" 
d="M414 245v112h306v-17q0 -137 -61 -225q-90 -130 -265 -130q-155 0 -252.5 96.5t-97.5 251.5t99.5 252t254.5 97q66 0 120 -18t88 -48t50 -49.5t28 -41.5l-113 -61q-8 13 -18.5 26.5t-31.5 32t-53.5 30t-70.5 11.5q-97 0 -158 -67.5t-61 -165.5q0 -89 55 -158.5t163 -69.5
q75 0 127.5 35t62.5 107h-172z" />
    <glyph glyph-name="H" unicode="H" horiz-adv-x="694" 
d="M206 667v-258h282v258h130v-667h-130v297h-282v-297h-130v667h130z" />
    <glyph glyph-name="I" unicode="I" horiz-adv-x="282" 
d="M76 667h130v-667h-130v667z" />
    <glyph glyph-name="J" unicode="J" horiz-adv-x="390" 
d="M184 667h130v-450q0 -149 -78 -202q-46 -30 -109 -30q-88 0 -153 62l79 95q25 -36 65 -36q36 0 51 23q15 22 15 108v430z" />
    <glyph glyph-name="K" unicode="K" horiz-adv-x="636" 
d="M206 667v-282l245 282h164l-282 -308l297 -359h-172l-237 299l-15 -15v-284h-130v667h130z" />
    <glyph glyph-name="L" unicode="L" horiz-adv-x="426" 
d="M76 667h130v-555h206v-112h-336v667z" />
    <glyph glyph-name="M" unicode="M" horiz-adv-x="870" 
d="M42 0l124 679h90l181 -436l189 436h90l112 -679h-132l-60 411l-183 -420h-36l-175 420l-68 -411h-132z" />
    <glyph glyph-name="N" unicode="N" horiz-adv-x="778" 
d="M206 0h-130v682h90l406 -464v449h130v-680h-90l-406 464v-451z" />
    <glyph glyph-name="O" unicode="O" horiz-adv-x="800" 
d="M400 682q157 0 256.5 -98t99.5 -251t-99.5 -250.5t-256.5 -97.5t-256.5 97.5t-99.5 250.5t99.5 251t256.5 98zM400 103q98 0 160 64.5t62 165.5t-62.5 166t-159.5 65t-159.5 -65t-62.5 -166t62 -165.5t160 -64.5z" />
    <glyph glyph-name="P" unicode="P" horiz-adv-x="534" 
d="M76 667h194q62 0 101.5 -10.5t74.5 -40.5q68 -60 68 -161q0 -94 -55 -149q-59 -59 -169 -59h-84v-247h-130v667zM206 555v-196h53q57 0 85 21q36 29 36 78t-37 76q-30 21 -92 21h-45z" />
    <glyph glyph-name="Q" unicode="Q" horiz-adv-x="800" 
d="M645 -26l-55 59q-81 -48 -190 -48q-157 0 -256.5 97.5t-99.5 250.5t99.5 251t256.5 98t256.5 -98t99.5 -251q0 -139 -88 -237l108 -109zM501 268l77 -79q44 59 44 144q0 101 -62.5 166t-159.5 65t-159.5 -65t-62.5 -166t62.5 -165.5t162.5 -64.5q55 0 99 22l-136 132z
" />
    <glyph glyph-name="R" unicode="R" horiz-adv-x="574" 
d="M76 667h193q110 0 170 -50q66 -56 66 -150q0 -105 -78 -157q-30 -21 -73 -29l208 -281h-162l-178 268h-16v-268h-130v667zM206 561v-201h37q16 0 31.5 2.5t40.5 11t40.5 31t15.5 56.5t-15 56.5t-40 31t-40 10.5t-31 2h-39z" />
    <glyph glyph-name="S" unicode="S" horiz-adv-x="534" 
d="M472 604l-68 -89q-43 57 -109 57q-48 0 -70 -23.5t-22 -54.5q0 -27 21 -45q16 -15 80 -38q99 -34 135 -67q57 -51 57 -140q0 -98 -64.5 -158.5t-167.5 -60.5q-144 0 -230 126l85 81q22 -45 61 -67t79 -22q45 0 74 25.5t29 66.5q0 35 -26 60q-24 22 -103 49
q-74 25 -111 58q-53 46 -53 124q0 81 55 138.5t159 57.5q113 0 189 -78z" />
    <glyph glyph-name="T" unicode="T" horiz-adv-x="442" 
d="M436 555h-150v-555h-130v555h-150v112h430v-112z" />
    <glyph glyph-name="U" unicode="U" horiz-adv-x="688" 
d="M76 667h130v-419q0 -63 32 -99q38 -46 106 -46t106 46q32 36 32 99v419h130v-408q0 -114 -50 -178q-35 -46 -93.5 -71t-124.5 -25t-124.5 25t-93.5 71q-50 64 -50 178v408z" />
    <glyph glyph-name="V" unicode="V" horiz-adv-x="644" 
d="M2 667h142l178 -448l178 448h142l-286 -682h-70z" />
    <glyph glyph-name="W" unicode="W" horiz-adv-x="978" 
d="M485 423l-155 -438h-92l-236 682h138l149 -454l163 460h72l154 -460l160 454h138l-251 -682h-92z" />
    <glyph glyph-name="X" unicode="X" horiz-adv-x="640" 
d="M8 0l236 352l-199 315h156l117 -207l123 207h156l-205 -315l228 -352h-156l-146 244l-154 -244h-156z" />
    <glyph glyph-name="Y" unicode="Y" horiz-adv-x="590" 
d="M227 0v305l-229 362h154l143 -232l143 232h154l-235 -362v-305h-130z" />
    <glyph glyph-name="Z" unicode="Z" horiz-adv-x="584" 
d="M562 667l-324 -555h308v-112h-524l324 555h-273v112h489z" />
    <glyph glyph-name="bracketleft" unicode="[" horiz-adv-x="350" 
d="M300 645h-94v-701h94v-104h-210v909h210v-104z" />
    <glyph glyph-name="backslash" unicode="\" horiz-adv-x="550" 
d="M550 -143l-88 -40l-382 884l88 40z" />
    <glyph glyph-name="bracketright" unicode="]" horiz-adv-x="350" 
d="M50 -56h94v701h-94v104h210v-909h-210v104z" />
    <glyph glyph-name="asciicircum" unicode="^" horiz-adv-x="500" 
d="M250 580l-115 -241h-127l162 331h160l162 -331h-127z" />
    <glyph glyph-name="underscore" unicode="_" horiz-adv-x="500" 
d="M0 -158v104h500v-104h-500z" />
    <glyph glyph-name="grave" unicode="`" horiz-adv-x="500" 
d="M244 510l-150 134l88 56l118 -150z" />
    <glyph glyph-name="a" unicode="a" horiz-adv-x="570" 
d="M390 377v56h122v-433h-122v56q-49 -70 -133 -70q-98 0 -159.5 67t-61.5 164q0 98 60 164t155 66q94 0 139 -70zM282 339q-52 0 -86 -35t-34 -87t34 -87.5t86 -35.5t86 35.5t34 87.5t-34 87t-86 35z" />
    <glyph glyph-name="b" unicode="b" horiz-adv-x="570" 
d="M180 749v-372q50 70 141 70q95 0 154 -65t59 -165t-60.5 -165.5t-155.5 -65.5q-87 0 -138 70v-56h-122v749h122zM288 339q-52 0 -86 -35t-34 -87t34 -87.5t86 -35.5t86 35.5t34 87.5t-34 87t-86 35z" />
    <glyph glyph-name="c" unicode="c" horiz-adv-x="418" 
d="M384 421v-120q-41 38 -100 38q-58 0 -90 -35.5t-32 -86.5q0 -53 35.5 -88t90.5 -35q54 0 96 38v-119q-54 -27 -112 -27q-101 0 -167 63q-69 65 -69 166q0 110 75 176q63 56 156 56q63 0 117 -26z" />
    <glyph glyph-name="d" unicode="d" horiz-adv-x="570" 
d="M390 377v372h122v-749h-122v56q-49 -70 -133 -70q-98 0 -159.5 67t-61.5 164q0 98 60 164t155 66q94 0 139 -70zM282 339q-52 0 -86 -35t-34 -87t34 -87.5t86 -35.5t86 35.5t34 87.5t-34 87t-86 35z" />
    <glyph glyph-name="e" unicode="e" horiz-adv-x="522" 
d="M371 139l112 -18q-7 -18 -18.5 -35.5t-35.5 -43t-65 -41t-94 -15.5q-102 0 -166 61q-68 64 -68 169q0 104 66 170q62 61 163 61q110 0 169 -71q52 -62 52 -170v-10h-324q0 -44 21 -73q30 -41 87 -41q68 0 101 57zM166 274h205q-7 42 -36.5 64.5t-66.5 22.5
q-36 0 -65.5 -23t-36.5 -64z" />
    <glyph glyph-name="f" unicode="f" horiz-adv-x="292" 
d="M294 329h-112v-329h-122v329h-46v104h46v139q0 106 57 153q43 36 107 36q38 0 70 -15v-111q-24 18 -55 18q-29 0 -44 -22q-13 -21 -13 -75v-123h112v-104z" />
    <glyph glyph-name="g" unicode="g" 
d="M388 377v56h122v-417q0 -38 -1.5 -58t-13 -54t-34.5 -61q-67 -76 -181 -76q-93 0 -157.5 49t-75.5 133h132q7 -37 34 -57.5t68 -20.5q30 0 51.5 11t32 24.5t16 33.5t6.5 30.5t1 22.5v65q-47 -72 -133 -72q-97 0 -158 67t-61 164q0 95 59 162.5t157 67.5q90 0 136 -70z
M282 339q-52 0 -86 -35t-34 -87t34 -87.5t86 -35.5t86 35.5t34 87.5t-34 87t-86 35z" />
    <glyph glyph-name="h" unicode="h" horiz-adv-x="534" 
d="M58 0v749h122v-372q50 70 134 70q85 0 128 -53q34 -42 34 -122v-272h-122v236q0 61 -23 85q-21 22 -57 22q-50 0 -75 -38q-19 -30 -19 -84v-221h-122z" />
    <glyph glyph-name="i" unicode="i" horiz-adv-x="238" 
d="M58 433h122v-433h-122v433zM46 616q0 30 21.5 51.5t51.5 21.5t51.5 -21.5t21.5 -51.5t-21.5 -51.5t-51.5 -21.5t-51.5 21.5t-21.5 51.5z" />
    <glyph glyph-name="j" unicode="j" horiz-adv-x="238" 
d="M58 433h122v-665h-122v665zM46 616q0 30 21.5 51.5t51.5 21.5t51.5 -21.5t21.5 -51.5t-21.5 -51.5t-51.5 -21.5t-51.5 21.5t-21.5 51.5z" />
    <glyph glyph-name="k" unicode="k" horiz-adv-x="512" 
d="M58 749h122v-474l162 158h158l-203 -190l219 -243h-162l-161 185l-13 -12v-173h-122v749z" />
    <glyph glyph-name="l" unicode="l" horiz-adv-x="238" 
d="M58 749h122v-749h-122v749z" />
    <glyph glyph-name="m" unicode="m" horiz-adv-x="790" 
d="M58 0v433h122v-49q50 63 129 63q97 0 137 -79q49 79 139 79q76 0 117 -53q19 -25 24.5 -52t5.5 -70v-272h-122v236q0 61 -20 85q-18 22 -50 22q-46 0 -67 -38q-17 -28 -17 -84v-221h-122v236q0 61 -20 85q-18 22 -50 22q-46 0 -67 -38q-17 -28 -17 -84v-221h-122z" />
    <glyph glyph-name="n" unicode="n" horiz-adv-x="534" 
d="M58 0v433h122v-56q50 70 134 70q85 0 128 -53q34 -42 34 -122v-272h-122v236q0 61 -23 85q-21 22 -57 22q-50 0 -75 -38q-19 -30 -19 -84v-221h-122z" />
    <glyph glyph-name="o" unicode="o" 
d="M284 447q109 0 175 -61q73 -66 73 -170q0 -103 -73 -169q-66 -61 -175 -61t-175 61q-73 66 -73 169q0 104 73 170q66 61 175 61zM284 94q52 0 87 36t35 86q0 51 -35 87t-87 36t-87 -36t-35 -87q0 -50 35 -86t87 -36z" />
    <glyph glyph-name="p" unicode="p" horiz-adv-x="570" 
d="M180 56v-288h-122v665h122v-56q50 70 141 70q95 0 154 -65t59 -165t-60.5 -165.5t-155.5 -65.5q-87 0 -138 70zM288 339q-52 0 -86 -35t-34 -87t34 -87.5t86 -35.5t86 35.5t34 87.5t-34 87t-86 35z" />
    <glyph glyph-name="q" unicode="q" horiz-adv-x="570" 
d="M390 377v56h122v-665h-122v288q-49 -70 -133 -70q-98 0 -159.5 67t-61.5 164q0 98 60 164t155 66q94 0 139 -70zM282 339q-52 0 -86 -35t-34 -87t34 -87.5t86 -35.5t86 35.5t34 87.5t-34 87t-86 35z" />
    <glyph glyph-name="r" unicode="r" horiz-adv-x="360" 
d="M58 0v433h122v-65q22 42 54 60q30 19 72 19q24 0 52 -10l-16 -114q-23 16 -57 16q-53 0 -81 -35q-24 -30 -24 -96v-208h-122z" />
    <glyph glyph-name="s" unicode="s" horiz-adv-x="404" 
d="M354 401l-60 -71q-31 29 -71 29q-22 0 -34.5 -9.5t-12.5 -25.5q0 -26 39 -39l29 -9q85 -27 110 -62q22 -30 22 -72q0 -66 -48 -110q-50 -46 -130 -46q-101 0 -168 72l64 74q43 -50 96 -50q26 0 43 12.5t17 34.5q0 30 -38 44l-28 10q-65 23 -93 52q-33 35 -33 83
q0 60 45 98q39 31 113 31q78 0 138 -46z" />
    <glyph glyph-name="t" unicode="t" horiz-adv-x="270" 
d="M264 329h-84v-329h-122v329h-48v104h48v148h122v-148h84v-104z" />
    <glyph glyph-name="u" unicode="u" horiz-adv-x="536" 
d="M58 433h122v-245q0 -52 26 -76q25 -22 62 -22t62 22q26 24 26 76v245h122v-265q0 -87 -53 -133q-56 -49 -157 -49t-157 49q-53 46 -53 133v265z" />
    <glyph glyph-name="v" unicode="v" horiz-adv-x="504" 
d="M2 433h136l114 -244l114 244h136l-222 -442h-56z" />
    <glyph glyph-name="w" unicode="w" horiz-adv-x="792" 
d="M396 255l-116 -264h-56l-222 442h136l114 -250l118 262h52l118 -262l114 250h136l-222 -442h-56z" />
    <glyph glyph-name="x" unicode="x" horiz-adv-x="566" 
d="M2 0l206 236l-166 197h154l88 -112l90 112h154l-169 -197l205 -236h-156l-124 151l-126 -151h-156z" />
    <glyph glyph-name="y" unicode="y" horiz-adv-x="538" 
d="M49 -232l159 297l-206 368h142l134 -246l120 246h138l-349 -665h-138z" />
    <glyph glyph-name="z" unicode="z" horiz-adv-x="484" 
d="M472 433l-246 -329h229v-104h-443l246 329h-208v104h422z" />
    <glyph glyph-name="braceleft" unicode="{" horiz-adv-x="500" 
d="M235 240q36 -23 48 -48.5t12 -76.5v-143q0 -33 13 -46q15 -15 74 -15h18v-104q-32 -2 -64 -2q-83 0 -118 29q-18 14 -27 35.5t-10.5 37t-1.5 41.5v162q0 40 -17 60q-13 14 -38 18v104q25 4 38 18q17 20 17 60v162q0 26 1.5 41.5t10.5 37t27 35.5q35 29 118 29q32 0 64 -2
v-104h-18q-59 0 -74 -15q-13 -13 -13 -46v-143q0 -51 -12 -76.5t-48 -48.5z" />
    <glyph glyph-name="bar" unicode="|" horiz-adv-x="500" 
d="M189 -250v1000h122v-1000h-122z" />
    <glyph glyph-name="braceright" unicode="}" horiz-adv-x="500" 
d="M265 240q-36 23 -48 48.5t-12 76.5v143q0 33 -13 46q-15 15 -74 15h-18v104q32 2 64 2q83 0 118 -29q18 -14 27 -35.5t10.5 -37t1.5 -41.5v-162q0 -40 17 -60q13 -14 38 -18v-104q-25 -4 -38 -18q-17 -20 -17 -60v-162q0 -26 -1.5 -41.5t-10.5 -37t-27 -35.5
q-35 -29 -118 -29q-32 0 -64 2v104h18q59 0 74 15q13 13 13 46v143q0 51 12 76.5t48 48.5z" />
    <glyph glyph-name="asciitilde" unicode="~" horiz-adv-x="668" 
d="M508 745l70 -40q-37 -88 -92 -116q-30 -15 -59 -15q-35 0 -106 27q-67 25 -90 25q-20 0 -37 -14t-23.5 -26t-10.5 -23l-70 40q30 86 77 119q28 21 71 21q35 0 108 -27q71 -25 88 -25q46 0 74 54z" />
    <glyph glyph-name="currency" unicode="&#xa4;" horiz-adv-x="668" 
d="M90 682l103 -103q59 45 141 45t141 -45l103 103l66 -66l-103 -103q45 -57 45 -139t-45 -139l103 -103l-66 -66l-103 103q-59 -45 -141 -45t-141 45l-103 -103l-66 66l103 103q-45 57 -45 139t45 139l-103 103zM334 232q62 0 101 40.5t39 101.5t-39 101.5t-101 40.5
t-101 -40.5t-39 -101.5t39 -101.5t101 -40.5z" />
    <glyph glyph-name="brokenbar" unicode="&#xa6;" horiz-adv-x="500" 
d="M189 390v360h122v-360h-122zM189 -250v360h122v-360h-122z" />
    <glyph glyph-name="section" unicode="&#xa7;" 
d="M188 459q-42 18 -65.5 54t-23.5 83q0 73 52.5 117t138.5 44q115 0 161 -82q22 -40 23 -98h-120q4 35 -16 57.5t-52 22.5q-30 0 -49.5 -16.5t-19.5 -48.5q0 -28 18 -44t87 -45q93 -39 128 -75q45 -48 45 -119q0 -13 -2.5 -27.5t-12 -43.5t-36 -55.5t-66.5 -43.5
q12 -5 24 -13t29 -23t27.5 -41t10.5 -57q0 -71 -50.5 -123t-139.5 -52q-84 0 -138 51.5t-53 138.5h122q0 -36 20 -61t53 -25q29 0 48.5 20.5t19.5 51.5q0 26 -15.5 45t-34 28t-52.5 21q-3 1 -18.5 6.5t-20.5 7.5l-17.5 7t-19 9t-17 10t-18.5 13t-16 15q-49 53 -49 127
q0 57 28 103t87 61zM284 212q32 0 57.5 23.5t25.5 63.5t-25.5 63.5t-57.5 23.5t-57.5 -23.5t-25.5 -63.5t25.5 -63.5t57.5 -23.5z" />
    <glyph glyph-name="copyright" unicode="&#xa9;" horiz-adv-x="760" 
d="M380 682q146 0 246.5 -100t100.5 -249t-100.5 -248.5t-246.5 -99.5t-246.5 99.5t-100.5 248.5t100.5 249t246.5 100zM380 620q-116 0 -196.5 -83.5t-80.5 -203.5q0 -119 80.5 -202.5t196.5 -83.5t196.5 83.5t80.5 202.5q0 120 -80.5 203.5t-196.5 83.5zM511 516v-109
l-11 11q-42 42 -95 42q-56 0 -91.5 -36.5t-35.5 -91.5q0 -56 35.5 -91t93.5 -35q52 0 93 41l11 11v-109q-47 -25 -107 -25q-95 0 -158.5 59.5t-63.5 147.5q0 82 59 146.5t160 64.5q63 0 110 -26z" />
    <glyph glyph-name="guillemotleft" unicode="&#xab;" horiz-adv-x="514" 
d="M146 219l122 -164l-70 -50l-158 214l158 214l70 -50zM342 219l122 -164l-70 -50l-158 214l158 214l70 -50z" />
    <glyph glyph-name="logicalnot" unicode="&#xac;" horiz-adv-x="500" 
d="M467 0h-122v157h-312v112h434v-269z" />
    <glyph glyph-name="registered" unicode="&#xae;" horiz-adv-x="760" 
d="M380 682q146 0 246.5 -100t100.5 -249t-100.5 -248.5t-246.5 -99.5t-246.5 99.5t-100.5 248.5t100.5 249t246.5 100zM380 620q-116 0 -196.5 -83.5t-80.5 -203.5q0 -119 80.5 -202.5t196.5 -83.5t196.5 83.5t80.5 202.5q0 120 -80.5 203.5t-196.5 83.5zM263 507h112
q59 0 90.5 -31t31.5 -73q0 -35 -21.5 -61t-57.5 -33l103 -137h-89l-93 124v-124h-76v335zM339 441v-83h13q63 0 63 42q0 18 -11 28t-22 11.5t-28 1.5h-15z" />
    <glyph glyph-name="degree" unicode="&#xb0;" horiz-adv-x="500" 
d="M250 662q65 0 109 -42.5t44 -107.5t-44 -107.5t-109 -42.5t-109 42.5t-44 107.5t44 107.5t109 42.5zM250 590q-35 0 -57 -22t-22 -56t22 -56t57 -22t57 22t22 56t-22 56t-57 22z" />
    <glyph glyph-name="plusminus" unicode="&#xb1;" horiz-adv-x="500" 
d="M33 355v112h156v156h122v-156h156v-112h-156v-156h-122v156h-156zM33 52v112h434v-112h-434z" />
    <glyph glyph-name="mu" unicode="&#xb5;" horiz-adv-x="560" 
d="M180 -172h-122v605h122v-209q0 -15 1 -28t7 -35.5t16 -37.5t30 -27t48 -12q98 0 98 144v205h122v-433h-122v60q-12 -32 -38.5 -53t-62.5 -21q-67 0 -99 66v-224z" />
    <glyph glyph-name="mu" unicode="&#x3bc;" horiz-adv-x="560" 
d="M180 -172h-122v605h122v-209q0 -15 1 -28t7 -35.5t16 -37.5t30 -27t48 -12q98 0 98 144v205h122v-433h-122v60q-12 -32 -38.5 -53t-62.5 -21q-67 0 -99 66v-224z" />
    <glyph glyph-name="paragraph" unicode="&#xb6;" horiz-adv-x="654" 
d="M322 -93h-104v413h-13q-79 0 -129 46.5t-50 123.5q0 110 94 155q47 22 136 22h326v-94h-70v-666h-104v666h-86v-666z" />
    <glyph glyph-name="periodcentered" unicode="&#xb7;" horiz-adv-x="200" 
d="M8 286q0 38 27 65t65 27t65 -27t27 -65t-27 -65t-65 -27t-65 27t-27 65z" />
    <glyph glyph-name="periodcentered" unicode="&#x2219;" horiz-adv-x="200" 
d="M8 286q0 38 27 65t65 27t65 -27t27 -65t-27 -65t-65 -27t-65 27t-27 65z" />
    <glyph glyph-name="guillemotright" unicode="&#xbb;" horiz-adv-x="514" 
d="M172 219l-122 164l70 50l158 -214l-158 -214l-70 50zM368 219l-122 164l70 50l158 -214l-158 -214l-70 50z" />
    <glyph glyph-name="afii10023" unicode="&#x401;" horiz-adv-x="496" 
d="M446 667v-112h-240v-149h230v-112h-230v-182h240v-112h-370v667h370zM76 811q0 29 21.5 50.5t50.5 21.5t50.5 -21.5t21.5 -50.5t-21.5 -50.5t-50.5 -21.5t-50.5 21.5t-21.5 50.5zM300 811q0 29 21.5 50.5t50.5 21.5t50.5 -21.5t21.5 -50.5t-21.5 -50.5t-50.5 -21.5
t-50.5 21.5t-21.5 50.5z" />
    <glyph glyph-name="afii10051" unicode="&#x402;" horiz-adv-x="680" 
d="M496 555h-220v-154q70 7 128 7q152 0 214 -80q42 -52 42 -138q0 -92 -55 -146.5t-143 -54.5q-70 0 -128 30l34 103q35 -21 75 -21q38 0 60.5 23.5t22.5 63.5q0 48 -24 75q-30 33 -103 33q-57 0 -123 -7v-289h-130v555h-140v112h490v-112z" />
    <glyph glyph-name="afii10052" unicode="&#x403;" horiz-adv-x="436" 
d="M430 667v-112h-224v-555h-130v667h354zM256 728l-56 50l140 142l90 -70z" />
    <glyph glyph-name="afii10053" unicode="&#x404;" horiz-adv-x="611" 
d="M567 176v-152q-81 -39 -175 -39q-156 0 -249 93q-99 96 -99 255q0 76 26.5 145.5t73.5 115.5q92 88 249 88q94 0 174 -41v-152q-68 75 -175 75q-83 0 -141 -49.5t-73 -123.5h319v-112h-319q15 -83 78.5 -129.5t142.5 -46.5q101 0 168 73z" />
    <glyph glyph-name="afii10054" unicode="&#x405;" horiz-adv-x="534" 
d="M472 604l-68 -89q-43 57 -109 57q-48 0 -70 -23.5t-22 -54.5q0 -27 21 -45q16 -15 80 -38q99 -34 135 -67q57 -51 57 -140q0 -98 -64.5 -158.5t-167.5 -60.5q-144 0 -230 126l85 81q22 -45 61 -67t79 -22q45 0 74 25.5t29 66.5q0 35 -26 60q-24 22 -103 49
q-74 25 -111 58q-53 46 -53 124q0 81 55 138.5t159 57.5q113 0 189 -78z" />
    <glyph glyph-name="afii10055" unicode="&#x406;" horiz-adv-x="282" 
d="M76 667h130v-667h-130v667z" />
    <glyph glyph-name="afii10056" unicode="&#x407;" horiz-adv-x="282" 
d="M76 667h130v-667h-130v667zM0 816q0 25 17.5 42.5t42.5 17.5t42.5 -17.5t17.5 -42.5t-17.5 -42.5t-42.5 -17.5t-42.5 17.5t-17.5 42.5zM162 816q0 25 17.5 42.5t42.5 17.5t42.5 -17.5t17.5 -42.5t-17.5 -42.5t-42.5 -17.5t-42.5 17.5t-17.5 42.5z" />
    <glyph glyph-name="afii10057" unicode="&#x408;" horiz-adv-x="390" 
d="M184 667h130v-450q0 -149 -78 -202q-46 -30 -109 -30q-88 0 -153 62l79 95q25 -36 65 -36q36 0 51 23q15 22 15 108v430z" />
    <glyph glyph-name="afii10058" unicode="&#x409;" horiz-adv-x="944" 
d="M140 667h454v-261h104q104 0 164 -55q62 -57 62 -149q0 -68 -36 -120q-56 -82 -189 -82h-235v555h-194v-296q0 -38 -1 -57t-7 -54t-22 -61.5t-42 -48.5q-52 -44 -133 -44q-28 0 -55 6v112q20 -6 37 -6q36 0 60 24q16 16 23.5 44t8.5 48t1 63v382zM594 294v-182h76
q120 0 120 90q0 38 -26.5 65t-91.5 27h-78z" />
    <glyph glyph-name="afii10059" unicode="&#x40a;" horiz-adv-x="968" 
d="M206 667v-258h282v258h130v-261h104q104 0 164 -55q62 -57 62 -149q0 -68 -36 -120q-56 -82 -189 -82h-235v297h-282v-297h-130v667h130zM618 294v-182h76q120 0 120 90q0 38 -26.5 65t-91.5 27h-78z" />
    <glyph glyph-name="afii10060" unicode="&#x40b;" horiz-adv-x="690" 
d="M476 555h-200v-154q68 7 119 7q121 0 178 -43q67 -50 67 -160v-205h-130v182q0 66 -33 92q-29 22 -95 22q-57 0 -106 -7v-289h-130v555h-140v112h470v-112z" />
    <glyph glyph-name="afii10061" unicode="&#x40c;" horiz-adv-x="636" 
d="M206 667v-282l245 282h164l-282 -308l297 -359h-172l-237 299l-15 -15v-284h-130v667h130zM294 728l-56 50l140 142l90 -70z" />
    <glyph glyph-name="afii10062" unicode="&#x40e;" horiz-adv-x="610" 
d="M2 667h152l169 -336l143 336h142l-309 -667h-142l93 186zM130 844l90 36q22 -58 90 -58t90 58l90 -36q-20 -52 -66.5 -82t-113.5 -30t-113.5 30t-66.5 82z" />
    <glyph glyph-name="afii10145" unicode="&#x40f;" horiz-adv-x="676" 
d="M76 0v667h130v-555h264v555h130v-667h-202v-180h-120v180h-202z" />
    <glyph glyph-name="afii10017" unicode="&#x410;" horiz-adv-x="672" 
d="M530 0l-59 140h-269l-59 -140h-141l289 681h98l281 -681h-140zM243 246h190l-94 240z" />
    <glyph glyph-name="afii10018" unicode="&#x411;" horiz-adv-x="570" 
d="M76 0v667h386v-112h-256v-153h90q106 0 167 -54q63 -56 63 -148q0 -66 -37 -119q-57 -81 -192 -81h-221zM206 290v-178h62q124 0 124 87q0 38 -27.5 64.5t-94.5 26.5h-64z" />
    <glyph glyph-name="afii10019" unicode="&#x412;" horiz-adv-x="570" 
d="M76 667h165q109 0 163 -42q62 -48 62 -138q0 -89 -75 -131q51 -8 87 -42q48 -46 48 -125q0 -84 -57 -135q-61 -54 -169 -54h-224v667zM206 561v-171h37q10 0 18.5 0.5t25 5.5t28 13.5t20.5 26t9 41.5q0 43 -28 63.5t-72 20.5h-38zM206 290v-184h56q58 0 89 18
q41 24 41 77q0 54 -49 76q-28 13 -89 13h-48z" />
    <glyph glyph-name="afii10020" unicode="&#x413;" horiz-adv-x="436" 
d="M430 667v-112h-224v-555h-130v667h354z" />
    <glyph glyph-name="afii10021" unicode="&#x414;" horiz-adv-x="670" 
d="M140 667h450v-555h70v-262h-120v150h-410v-150h-120v262q34 -1 62 24.5t44 65.5q24 61 24 175v290zM266 555v-178q0 -125 -23 -186q-18 -46 -52 -79h269v443h-194z" />
    <glyph glyph-name="afii10022" unicode="&#x415;" horiz-adv-x="496" 
d="M446 667v-112h-240v-149h230v-112h-230v-182h240v-112h-370v667h370z" />
    <glyph glyph-name="afii10024" unicode="&#x416;" horiz-adv-x="894" 
d="M385 667h124v-282l222 282h148l-255 -308l264 -359h-150l-214 299l-15 -15v-284h-124v284l-15 15l-214 -299h-150l264 359l-255 308h148l222 -282v282z" />
    <glyph glyph-name="afii10025" unicode="&#x417;" horiz-adv-x="600" 
d="M158 515l-68 89q87 78 205 78q101 0 160 -47.5t59 -126.5q0 -95 -82 -141q60 -15 92 -62t32 -110q0 -94 -74 -152t-191 -58q-173 0 -251 126l85 81q22 -50 69.5 -74.5t99.5 -24.5q63 0 95.5 29t32.5 70q0 102 -146 102h-60v112h60q51 0 81 22.5t30 62.5q0 37 -24 57
t-71 20q-86 0 -134 -53z" />
    <glyph glyph-name="afii10026" unicode="&#x418;" horiz-adv-x="740" 
d="M76 667h130v-448l368 463h90v-682h-130v450l-368 -463h-90v680z" />
    <glyph glyph-name="afii10027" unicode="&#x419;" horiz-adv-x="740" 
d="M76 667h130v-448l368 463h90v-682h-130v450l-368 -463h-90v680zM190 844l90 36q22 -58 90 -58t90 58l90 -36q-20 -52 -66.5 -82t-113.5 -30t-113.5 30t-66.5 82z" />
    <glyph glyph-name="afii10028" unicode="&#x41a;" horiz-adv-x="636" 
d="M206 667v-282l245 282h164l-282 -308l297 -359h-172l-237 299l-15 -15v-284h-130v667h130z" />
    <glyph glyph-name="afii10029" unicode="&#x41b;" horiz-adv-x="670" 
d="M140 667h454v-667h-130v555h-194v-296q0 -38 -1 -57t-7 -54t-22 -61.5t-42 -48.5q-52 -44 -133 -44q-28 0 -55 6v112q20 -6 37 -6q36 0 60 24q16 16 23.5 44t8.5 48t1 63v382z" />
    <glyph glyph-name="afii10030" unicode="&#x41c;" horiz-adv-x="870" 
d="M42 0l124 679h90l181 -436l189 436h90l112 -679h-132l-60 411l-183 -420h-36l-175 420l-68 -411h-132z" />
    <glyph glyph-name="afii10031" unicode="&#x41d;" horiz-adv-x="694" 
d="M206 667v-258h282v258h130v-667h-130v297h-282v-297h-130v667h130z" />
    <glyph glyph-name="afii10032" unicode="&#x41e;" horiz-adv-x="800" 
d="M400 682q157 0 256.5 -98t99.5 -251t-99.5 -250.5t-256.5 -97.5t-256.5 97.5t-99.5 250.5t99.5 251t256.5 98zM400 103q98 0 160 64.5t62 165.5t-62.5 166t-159.5 65t-159.5 -65t-62.5 -166t62 -165.5t160 -64.5z" />
    <glyph glyph-name="afii10033" unicode="&#x41f;" horiz-adv-x="680" 
d="M76 667h528v-667h-130v555h-268v-555h-130v667z" />
    <glyph glyph-name="afii10034" unicode="&#x420;" horiz-adv-x="534" 
d="M76 667h194q62 0 101.5 -10.5t74.5 -40.5q68 -60 68 -161q0 -94 -55 -149q-59 -59 -169 -59h-84v-247h-130v667zM206 555v-196h53q57 0 85 21q36 29 36 78t-37 76q-30 21 -92 21h-45z" />
    <glyph glyph-name="afii10035" unicode="&#x421;" horiz-adv-x="604" 
d="M560 176v-152q-74 -39 -165 -39q-146 0 -244 93q-107 103 -107 255q0 162 107 261q94 88 245 88q88 0 164 -41v-152q-65 75 -161 75q-98 0 -159.5 -68.5t-61.5 -164.5q0 -105 68 -166.5t158 -61.5q94 0 156 73z" />
    <glyph glyph-name="afii10036" unicode="&#x422;" horiz-adv-x="442" 
d="M436 555h-150v-555h-130v555h-150v112h430v-112z" />
    <glyph glyph-name="afii10037" unicode="&#x423;" horiz-adv-x="610" 
d="M2 667h152l169 -336l143 336h142l-309 -667h-142l93 186z" />
    <glyph glyph-name="afii10038" unicode="&#x424;" horiz-adv-x="830" 
d="M350 0v92h-18q-117 0 -188 50q-100 71 -100 212t100 212q71 50 188 50h18v78h130v-78h18q117 0 188 -50q100 -71 100 -212t-100 -212q-71 -50 -188 -50h-18v-92h-130zM350 204v300h-20q-60 0 -98 -28q-54 -40 -54 -122q0 -79 54 -122q36 -28 98 -28h20zM480 504v-300h20
q63 0 99 28q53 41 53 122q0 83 -53 122q-38 28 -99 28h-20z" />
    <glyph glyph-name="afii10039" unicode="&#x425;" horiz-adv-x="640" 
d="M8 0l236 352l-199 315h156l117 -207l123 207h156l-205 -315l228 -352h-156l-146 244l-154 -244h-156z" />
    <glyph glyph-name="afii10040" unicode="&#x426;" horiz-adv-x="690" 
d="M76 0v667h130v-555h264v555h130v-555h80v-262h-120v150h-484z" />
    <glyph glyph-name="afii10041" unicode="&#x427;" horiz-adv-x="620" 
d="M414 0v266q-68 -7 -119 -7q-121 0 -178 43q-67 50 -67 160v205h130v-182q0 -66 33 -92q29 -22 95 -22q57 0 106 7v289h130v-667h-130z" />
    <glyph glyph-name="afii10042" unicode="&#x428;" horiz-adv-x="970" 
d="M76 0v667h130v-555h214v555h130v-555h214v555h130v-667h-818z" />
    <glyph glyph-name="afii10043" unicode="&#x429;" horiz-adv-x="984" 
d="M76 0v667h130v-555h214v555h130v-555h214v555h130v-555h80v-262h-120v150h-778z" />
    <glyph glyph-name="afii10044" unicode="&#x42a;" horiz-adv-x="626" 
d="M146 0v555h-140v112h270v-261h104q104 0 164 -55q62 -57 62 -149q0 -68 -36 -120q-56 -82 -189 -82h-235zM276 294v-182h76q120 0 120 90q0 38 -26.5 65t-91.5 27h-78z" />
    <glyph glyph-name="afii10045" unicode="&#x42b;" horiz-adv-x="800" 
d="M76 0v667h130v-261h104q104 0 164 -55q62 -57 62 -149q0 -68 -36 -120q-56 -82 -189 -82h-235zM206 294v-182h76q120 0 120 90q0 38 -26.5 65t-91.5 27h-78zM594 667h130v-667h-130v667z" />
    <glyph glyph-name="afii10046" unicode="&#x42c;" horiz-adv-x="556" 
d="M76 0v667h130v-261h104q104 0 164 -55q62 -57 62 -149q0 -68 -36 -120q-56 -82 -189 -82h-235zM206 294v-182h76q120 0 120 90q0 38 -26.5 65t-91.5 27h-78z" />
    <glyph glyph-name="afii10047" unicode="&#x42d;" horiz-adv-x="611" 
d="M44 24v152q72 -73 176 -73q78 0 138.5 46t74.5 130h-299v112h297q-14 82 -73 127.5t-133 45.5q-107 0 -181 -75v152q80 41 174 41q157 0 249 -88q47 -46 73.5 -115.5t26.5 -145.5q0 -159 -99 -255q-93 -93 -249 -93q-94 0 -175 39z" />
    <glyph glyph-name="afii10048" unicode="&#x42e;" horiz-adv-x="1026" 
d="M206 409h92q17 98 84 171q94 102 256 102q153 0 248.5 -98t95.5 -251q0 -152 -95.5 -250t-248.5 -98q-151 0 -243 89t-101 223h-88v-297h-130v667h130v-258zM638 103q94 0 152 64t58 166q0 112 -63.5 171.5t-146.5 59.5t-146.5 -59.5t-63.5 -171.5q0 -102 58 -166
t152 -64z" />
    <glyph glyph-name="afii10049" unicode="&#x42f;" 
d="M492 667v-667h-130v258h-24l-170 -258h-156l198 270q-40 6 -73 30q-75 54 -75 161q0 97 66 155q58 51 171 51h193zM362 561h-40q-16 0 -31 -2t-40 -10.5t-40 -31t-15 -56.5q0 -101 128 -101h38v201z" />
    <glyph glyph-name="afii10065" unicode="&#x430;" horiz-adv-x="570" 
d="M390 377v56h122v-433h-122v56q-49 -70 -133 -70q-98 0 -159.5 67t-61.5 164q0 98 60 164t155 66q94 0 139 -70zM282 339q-52 0 -86 -35t-34 -87t34 -87.5t86 -35.5t86 35.5t34 87.5t-34 87t-86 35z" />
    <glyph glyph-name="afii10066" unicode="&#x431;" horiz-adv-x="576" 
d="M404 720h112q-20 -119 -142 -156q-22 -7 -56.5 -15.5t-50.5 -13t-36.5 -17t-36.5 -32.5q-32 -41 -37 -98h2q23 30 65 44.5t87 14.5q100 0 162 -61q67 -64 67 -168t-73 -171q-67 -61 -172 -61q-110 0 -173 57q-78 70 -78 219q0 201 66 292q26 36 65 59.5t64 31t66 15.5
q48 10 69.5 23.5t29.5 36.5zM292 94q53 0 87.5 35t34.5 87q0 53 -34 88t-88 35t-88 -35t-34 -88q0 -52 34.5 -87t87.5 -35z" />
    <glyph glyph-name="afii10067" unicode="&#x432;" horiz-adv-x="456" 
d="M58 433h191q69 0 103 -26q42 -32 42 -85q0 -28 -15.5 -52.5t-44.5 -36.5q32 -6 57 -28q33 -30 33 -81q0 -61 -46 -96q-38 -28 -97 -28h-223v433zM180 261h56q19 0 32 8q16 10 16 30q0 21 -14 31q-10 7 -36 7h-54v-76zM180 96h57q31 0 45 11q16 12 16 35q0 21 -16 31
q-14 10 -42 10h-60v-87z" />
    <glyph glyph-name="afii10068" unicode="&#x433;" horiz-adv-x="340" 
d="M58 0v433h276v-104h-154v-329h-122z" />
    <glyph glyph-name="afii10069" unicode="&#x434;" horiz-adv-x="530" 
d="M98 433h360v-329h64v-230h-110v126h-298v-126h-110v230q51 3 77 55q17 37 17 111v163zM336 104v225h-128v-96q0 -88 -48 -129h176z" />
    <glyph glyph-name="afii10070" unicode="&#x435;" horiz-adv-x="522" 
d="M371 139l112 -18q-7 -18 -18.5 -35.5t-35.5 -43t-65 -41t-94 -15.5q-102 0 -166 61q-68 64 -68 169q0 104 66 170q62 61 163 61q110 0 169 -71q52 -62 52 -170v-10h-324q0 -44 21 -73q30 -41 87 -41q68 0 101 57zM166 274h205q-7 42 -36.5 64.5t-66.5 22.5
q-36 0 -65.5 -23t-36.5 -64z" />
    <glyph glyph-name="afii10072" unicode="&#x436;" horiz-adv-x="668" 
d="M279 433h110v-168l130 168h142l-165 -197l174 -236h-148l-117 170l-16 -18v-152h-110v152l-16 18l-117 -170h-148l174 236l-165 197h142l130 -168v168z" />
    <glyph glyph-name="afii10073" unicode="&#x437;" horiz-adv-x="440" 
d="M102 317l-56 76q67 54 164 54q73 0 115 -29q49 -33 49 -92q0 -60 -60 -93q32 -8 57 -29q33 -30 33 -80q0 -63 -50 -100q-50 -38 -142 -38q-116 0 -186 72l60 74q49 -46 116 -46q42 0 59 15t17 34q0 24 -23 36q-16 8 -52 8h-51v88h49q33 0 48 10t15 30q0 44 -66 44
q-56 0 -96 -34z" />
    <glyph glyph-name="afii10074" unicode="&#x438;" horiz-adv-x="560" 
d="M58 433h122v-267l200 267h122v-433h-122v267l-200 -267h-122v433z" />
    <glyph glyph-name="afii10075" unicode="&#x439;" horiz-adv-x="560" 
d="M58 433h122v-267l200 267h122v-433h-122v267l-200 -267h-122v433zM364 650l80 -38q-20 -56 -67 -79.5t-97 -23.5t-97 23.5t-67 79.5l80 38q6 -27 29.5 -45t54.5 -18q29 0 53 16t31 47z" />
    <glyph glyph-name="afii10076" unicode="&#x43a;" horiz-adv-x="500" 
d="M58 433h122v-168l162 168h152l-196 -193l206 -240h-156l-150 179l-18 -18v-161h-122v433z" />
    <glyph glyph-name="afii10077" unicode="&#x43b;" horiz-adv-x="500" 
d="M442 433v-433h-122v329h-118v-159q0 -84 -41 -128q-41 -46 -117 -46q-20 0 -36 4v104q12 -2 19 -2q33 0 50 21q15 18 15 55v255h350z" />
    <glyph glyph-name="afii10078" unicode="&#x43c;" horiz-adv-x="600" 
d="M12 0l79 445h90l119 -261l119 261h90l79 -445h-122l-36 235l-112 -244h-36l-112 244l-36 -235h-122z" />
    <glyph glyph-name="afii10079" unicode="&#x43d;" horiz-adv-x="530" 
d="M58 0v433h122v-153h170v153h122v-433h-122v176h-170v-176h-122z" />
    <glyph glyph-name="afii10080" unicode="&#x43e;" 
d="M284 447q109 0 175 -61q73 -66 73 -170q0 -103 -73 -169q-66 -61 -175 -61t-175 61q-73 66 -73 169q0 104 73 170q66 61 175 61zM284 94q52 0 87 36t35 86q0 51 -35 87t-87 36t-87 -36t-35 -87q0 -50 35 -86t87 -36z" />
    <glyph glyph-name="afii10081" unicode="&#x43f;" horiz-adv-x="526" 
d="M58 433h410v-433h-122v329h-166v-329h-122v433z" />
    <glyph glyph-name="afii10082" unicode="&#x440;" horiz-adv-x="570" 
d="M180 56v-288h-122v665h122v-56q50 70 141 70q95 0 154 -65t59 -165t-60.5 -165.5t-155.5 -65.5q-87 0 -138 70zM288 339q-52 0 -86 -35t-34 -87t34 -87.5t86 -35.5t86 35.5t34 87.5t-34 87t-86 35z" />
    <glyph glyph-name="afii10083" unicode="&#x441;" horiz-adv-x="418" 
d="M384 421v-120q-41 38 -100 38q-58 0 -90 -35.5t-32 -86.5q0 -53 35.5 -88t90.5 -35q54 0 96 38v-119q-54 -27 -112 -27q-101 0 -167 63q-69 65 -69 166q0 110 75 176q63 56 156 56q63 0 117 -26z" />
    <glyph glyph-name="afii10084" unicode="&#x442;" horiz-adv-x="374" 
d="M368 329h-120v-329h-122v329h-120v104h362v-104z" />
    <glyph glyph-name="afii10085" unicode="&#x443;" horiz-adv-x="538" 
d="M49 -232l159 297l-206 368h142l134 -246l120 246h138l-349 -665h-138z" />
    <glyph glyph-name="afii10086" unicode="&#x444;" horiz-adv-x="690" 
d="M284 -232v226h-10q-92 0 -152 43q-86 60 -86 180q0 118 86 180q60 42 152 42h10v228h122v-228h10q92 0 152 -42q86 -62 86 -180q0 -120 -86 -180q-60 -43 -152 -43h-10v-226h-122zM284 102v229q-45 2 -77 -20q-45 -31 -45 -94q0 -65 44 -94q30 -21 78 -21zM406 331v-229
q48 0 78 21q44 29 44 94q0 63 -45 94q-32 22 -77 20z" />
    <glyph glyph-name="afii10087" unicode="&#x445;" horiz-adv-x="566" 
d="M2 0l206 236l-166 197h154l88 -112l90 112h154l-169 -197l205 -236h-156l-124 151l-126 -151h-156z" />
    <glyph glyph-name="afii10088" unicode="&#x446;" horiz-adv-x="542" 
d="M58 0v433h122v-329h162v329h122v-329h70v-230h-110v126h-366z" />
    <glyph glyph-name="afii10089" unicode="&#x447;" horiz-adv-x="484" 
d="M304 0v148q-52 -10 -102 -10q-79 0 -121 40q-39 37 -39 102v153h122v-128q0 -33 15 -47q17 -16 62 -16q30 0 63 6v185h122v-433h-122z" />
    <glyph glyph-name="afii10090" unicode="&#x448;" horiz-adv-x="762" 
d="M58 0v433h122v-329h140v329h122v-329h140v329h122v-433h-646z" />
    <glyph glyph-name="afii10091" unicode="&#x449;" horiz-adv-x="782" 
d="M58 0v433h122v-329h140v329h122v-329h140v329h122v-329h70v-230h-110v126h-606z" />
    <glyph glyph-name="afii10092" unicode="&#x44a;" horiz-adv-x="504" 
d="M6 433h228v-154h95q76 0 116 -44q33 -35 33 -93q0 -71 -46 -110q-37 -32 -97 -32h-223v329h-106v104zM234 96h57q31 0 45 11q16 12 16 35q0 21 -16 31q-14 10 -42 10h-60v-87z" />
    <glyph glyph-name="afii10093" unicode="&#x44b;" horiz-adv-x="650" 
d="M58 433h122v-154h95q76 0 116 -44q33 -35 33 -93q0 -71 -46 -110q-37 -32 -97 -32h-223v433zM180 96h57q31 0 45 11q16 12 16 35q0 21 -16 31q-14 10 -42 10h-60v-87zM470 433h122v-433h-122v433z" />
    <glyph glyph-name="afii10094" unicode="&#x44c;" horiz-adv-x="450" 
d="M58 433h122v-154h95q76 0 116 -44q33 -35 33 -93q0 -71 -46 -110q-37 -32 -97 -32h-223v433zM180 96h57q31 0 45 11q16 12 16 35q0 21 -16 31q-14 10 -42 10h-60v-87z" />
    <glyph glyph-name="afii10095" unicode="&#x44d;" horiz-adv-x="434" 
d="M34 9v118q52 -42 126 -42q52 0 80 24q27 24 29 66h-179v88h179q-6 39 -33 61q-30 27 -77 27q-69 0 -123 -37v106q65 27 132 27q108 0 169 -65q61 -63 61 -166q0 -107 -64 -169q-62 -62 -166 -62q-78 0 -134 24z" />
    <glyph glyph-name="afii10096" unicode="&#x44e;" horiz-adv-x="750" 
d="M180 270h59q11 67 62 116q64 61 169 61q106 0 172 -61q72 -65 72 -170q0 -102 -72 -169q-66 -61 -172 -61q-104 0 -169 61q-51 49 -62 119h-59v-166h-122v433h122v-163zM470 94q51 0 84.5 35.5t33.5 86.5q0 52 -33.5 87.5t-84.5 35.5t-84.5 -35.5t-33.5 -87.5
q0 -51 33.5 -86.5t84.5 -35.5z" />
    <glyph glyph-name="afii10097" unicode="&#x44f;" horiz-adv-x="460" 
d="M20 0l128 162q-42 6 -70 34q-34 34 -34 92q0 67 52 109q46 36 134 36h172v-433h-122v152h-14l-106 -152h-140zM280 240v97h-53q-28 0 -41 -12q-16 -15 -16 -38q0 -24 16 -36q14 -11 41 -11h53z" />
    <glyph glyph-name="afii10071" unicode="&#x451;" horiz-adv-x="522" 
d="M371 139l112 -18q-7 -18 -18.5 -35.5t-35.5 -43t-65 -41t-94 -15.5q-102 0 -166 61q-68 64 -68 169q0 104 66 170q62 61 163 61q110 0 169 -71q52 -62 52 -170v-10h-324q0 -44 21 -73q30 -41 87 -41q68 0 101 57zM166 274h205q-7 42 -36.5 64.5t-66.5 22.5
q-36 0 -65.5 -23t-36.5 -64zM90 586q0 29 21.5 50.5t50.5 21.5t50.5 -21.5t21.5 -50.5t-21.5 -50.5t-50.5 -21.5t-50.5 21.5t-21.5 50.5zM298 586q0 29 21.5 50.5t50.5 21.5t50.5 -21.5t21.5 -50.5t-21.5 -50.5t-50.5 -21.5t-50.5 21.5t-21.5 50.5z" />
    <glyph glyph-name="afii10099" unicode="&#x452;" horiz-adv-x="544" 
d="M68 0v569h-78v78h78v102h122v-102h200v-78h-200v-192q50 70 134 70q85 0 128 -53q34 -42 34 -122v-369q0 -82 -49 -117q-39 -27 -99 -27q-42 0 -76 9v108q22 -9 47 -9q33 0 46 22q9 15 9 60v287q0 61 -23 85q-21 22 -57 22q-50 0 -75 -38q-19 -30 -19 -84v-221h-122z" />
    <glyph glyph-name="afii10100" unicode="&#x453;" horiz-adv-x="340" 
d="M58 0v433h276v-104h-154v-329h-122zM258 700l88 -56l-150 -134l-56 40z" />
    <glyph glyph-name="afii10101" unicode="&#x454;" horiz-adv-x="434" 
d="M400 124v-118q-47 -20 -116 -20q-113 0 -178 58q-33 30 -51.5 76t-18.5 93q0 101 67 166q68 68 178 68q68 0 117 -30v-106q-52 40 -113 40q-48 0 -82 -29q-31 -25 -41 -62h192v-88h-192q4 -43 40 -66q30 -20 92 -20q65 0 106 38z" />
    <glyph glyph-name="afii10102" unicode="&#x455;" horiz-adv-x="404" 
d="M354 401l-60 -71q-31 29 -71 29q-22 0 -34.5 -9.5t-12.5 -25.5q0 -26 39 -39l29 -9q85 -27 110 -62q22 -30 22 -72q0 -66 -48 -110q-50 -46 -130 -46q-101 0 -168 72l64 74q43 -50 96 -50q26 0 43 12.5t17 34.5q0 30 -38 44l-28 10q-65 23 -93 52q-33 35 -33 83
q0 60 45 98q39 31 113 31q78 0 138 -46z" />
    <glyph glyph-name="afii10103" unicode="&#x456;" horiz-adv-x="238" 
d="M58 433h122v-433h-122v433zM46 616q0 30 21.5 51.5t51.5 21.5t51.5 -21.5t21.5 -51.5t-21.5 -51.5t-51.5 -21.5t-51.5 21.5t-21.5 51.5z" />
    <glyph glyph-name="afii10104" unicode="&#x457;" horiz-adv-x="238" 
d="M58 433h122v-433h-122v433zM-1 586q0 22 15.5 38t38.5 16t38.5 -16t15.5 -38t-15.5 -38t-38.5 -16t-38.5 16t-15.5 38zM131 586q0 22 15.5 38t38.5 16t38.5 -16t15.5 -38t-15.5 -38t-38.5 -16t-38.5 16t-15.5 38z" />
    <glyph glyph-name="afii10105" unicode="&#x458;" horiz-adv-x="238" 
d="M58 433h122v-665h-122v665zM46 616q0 30 21.5 51.5t51.5 21.5t51.5 -21.5t21.5 -51.5t-21.5 -51.5t-51.5 -21.5t-51.5 21.5t-21.5 51.5z" />
    <glyph glyph-name="afii10106" unicode="&#x459;" horiz-adv-x="712" 
d="M442 433v-154h95q76 0 116 -44q33 -35 33 -93q0 -71 -46 -110q-37 -32 -97 -32h-223v329h-118v-159q0 -84 -41 -128q-41 -46 -117 -46q-20 0 -36 4v104q12 -2 19 -2q33 0 50 21q15 18 15 55v255h350zM442 96h57q31 0 45 11q16 12 16 35q0 21 -16 31q-14 10 -42 10h-60
v-87z" />
    <glyph glyph-name="afii10107" unicode="&#x45a;" horiz-adv-x="742" 
d="M58 0v433h122v-153h170v153h122v-154h95q76 0 116 -44q33 -35 33 -93q0 -71 -46 -110q-37 -32 -97 -32h-223v176h-170v-176h-122zM472 96h57q31 0 45 11q16 12 16 35q0 21 -16 31q-14 10 -42 10h-60v-87z" />
    <glyph glyph-name="afii10108" unicode="&#x45b;" horiz-adv-x="544" 
d="M68 0v569h-78v78h78v102h122v-102h200v-78h-200v-192q50 70 134 70q85 0 128 -53q34 -42 34 -122v-272h-122v236q0 61 -23 85q-21 22 -57 22q-50 0 -75 -38q-19 -30 -19 -84v-221h-122z" />
    <glyph glyph-name="afii10109" unicode="&#x45c;" horiz-adv-x="500" 
d="M58 433h122v-168l162 168h152l-196 -193l206 -240h-156l-150 179l-18 -18v-161h-122v433zM318 700l88 -56l-150 -134l-56 40z" />
    <glyph glyph-name="afii10110" unicode="&#x45e;" horiz-adv-x="538" 
d="M49 -232l159 297l-206 368h142l134 -246l120 246h138l-349 -665h-138zM358 650l80 -38q-20 -56 -67 -79.5t-97 -23.5t-97 23.5t-67 79.5l80 38q6 -27 29.5 -45t54.5 -18q29 0 53 16t31 47z" />
    <glyph glyph-name="afii10193" unicode="&#x45f;" horiz-adv-x="522" 
d="M58 0v433h122v-329h162v329h122v-433h-148v-160h-110v160h-148z" />
    <glyph glyph-name="afii10050" unicode="&#x490;" horiz-adv-x="476" 
d="M76 0v667h274v150h120v-262h-264v-555h-130z" />
    <glyph glyph-name="afii10098" unicode="&#x491;" horiz-adv-x="380" 
d="M58 0v433h206v126h110v-230h-194v-329h-122z" />
    <glyph glyph-name="endash" unicode="&#x2013;" horiz-adv-x="600" 
d="M50 178v104h500v-104h-500z" />
    <glyph glyph-name="emdash" unicode="&#x2014;" horiz-adv-x="800" 
d="M50 178v104h700v-104h-700z" />
    <glyph glyph-name="quoteleft" unicode="&#x2018;" horiz-adv-x="304" 
d="M260 670l-106 -269l-112 13l141 265z" />
    <glyph glyph-name="quoteright" unicode="&#x2019;" horiz-adv-x="370" 
d="M42 411l106 269l112 -13l-141 -265z" />
    <glyph glyph-name="quotesinglbase" unicode="&#x201a;" horiz-adv-x="370" 
d="M42 -131l106 269l112 -13l-141 -265z" />
    <glyph glyph-name="quotedblleft" unicode="&#x201c;" horiz-adv-x="492" 
d="M448 670l-106 -269l-112 13l141 265zM260 670l-106 -269l-112 13l141 265z" />
    <glyph glyph-name="quotedblright" unicode="&#x201d;" horiz-adv-x="570" 
d="M42 411l106 269l112 -13l-141 -265zM230 411l106 269l112 -13l-141 -265z" />
    <glyph glyph-name="quotedblbase" unicode="&#x201e;" horiz-adv-x="570" 
d="M42 -131l106 269l112 -13l-141 -265zM230 -131l106 269l112 -13l-141 -265z" />
    <glyph glyph-name="dagger" unicode="&#x2020;" 
d="M226 590v159h116v-159h158v-104h-158v-646h-116v646h-158v104h158z" />
    <glyph glyph-name="daggerdbl" unicode="&#x2021;" 
d="M226 590v159h116v-159h158v-104h-158v-214h158v-104h-158v-328h-116v328h-158v104h158v214h-158v104h158z" />
    <glyph glyph-name="bullet" unicode="&#x2022;" horiz-adv-x="668" 
d="M194 340q0 58 41 99t99 41t99 -41t41 -99t-41 -99t-99 -41t-99 41t-41 99z" />
    <glyph glyph-name="ellipsis" unicode="&#x2026;" horiz-adv-x="846" 
d="M63 65q0 33 22.5 55.5t55.5 22.5t55.5 -22.5t22.5 -55.5t-22.5 -55.5t-55.5 -22.5t-55.5 22.5t-22.5 55.5zM345 65q0 33 22.5 55.5t55.5 22.5t55.5 -22.5t22.5 -55.5t-22.5 -55.5t-55.5 -22.5t-55.5 22.5t-22.5 55.5zM627 65q0 33 22.5 55.5t55.5 22.5t55.5 -22.5
t22.5 -55.5t-22.5 -55.5t-55.5 -22.5t-55.5 22.5t-22.5 55.5z" />
    <glyph glyph-name="perthousand" unicode="&#x2030;" horiz-adv-x="1170" 
d="M198 675q77 0 122.5 -44.5t45.5 -113.5t-45.5 -113.5t-122.5 -44.5t-122.5 44.5t-45.5 113.5t45.5 113.5t122.5 44.5zM198 431q37 0 60.5 24t23.5 62t-23.5 62t-60.5 24t-60.5 -24t-23.5 -62t23.5 -62t60.5 -24zM162 3l397 686l53 -30l-397 -687zM576 306
q77 0 122.5 -44.5t45.5 -113.5t-45.5 -113.5t-122.5 -44.5t-122.5 44.5t-45.5 113.5t45.5 113.5t122.5 44.5zM576 62q37 0 60.5 24t23.5 62t-23.5 62t-60.5 24t-60.5 -24t-23.5 -62t23.5 -62t60.5 -24zM972 306q77 0 122.5 -44.5t45.5 -113.5t-45.5 -113.5t-122.5 -44.5
t-122.5 44.5t-45.5 113.5t45.5 113.5t122.5 44.5zM972 62q37 0 60.5 24t23.5 62t-23.5 62t-60.5 24t-60.5 -24t-23.5 -62t23.5 -62t60.5 -24z" />
    <glyph glyph-name="guilsinglleft" unicode="&#x2039;" horiz-adv-x="318" 
d="M146 219l122 -164l-70 -50l-158 214l158 214l70 -50z" />
    <glyph glyph-name="guilsinglright" unicode="&#x203a;" horiz-adv-x="318" 
d="M172 219l-122 164l70 50l158 -214l-158 -214l-70 50z" />
    <glyph glyph-name="Euro" unicode="&#x20ac;" 
d="M524 647v-118q-50 44 -143 44q-133 0 -156 -119h266l-32 -90h-247q0 -3 -0.5 -12t-0.5 -14q0 -6 0.5 -16.5t0.5 -14.5h225l-32 -90h-179q22 -123 156 -123q91 0 142 45v-120q-48 -33 -160 -33q-224 0 -263 231h-82l33 90h39q-1 8 -1 30q0 19 1 27h-72l33 90h48
q42 228 264 228q106 0 160 -35z" />
    <glyph glyph-name="afii61352" unicode="&#x2116;" horiz-adv-x="1080" 
d="M206 0h-130v667h130l306 -449v449h130v-667h-130l-306 449v-449zM870 667q77 0 122.5 -44.5t45.5 -113.5t-45.5 -113.5t-122.5 -44.5t-122.5 44.5t-45.5 113.5t45.5 113.5t122.5 44.5zM870 595q-37 0 -60.5 -24t-23.5 -62t23.5 -62t60.5 -24t60.5 24t23.5 62t-23.5 62
t-60.5 24zM722 197v86h296v-86h-296z" />
    <glyph glyph-name="trademark" unicode="&#x2122;" horiz-adv-x="720" 
d="M247 591h-82v-304h-85v304h-82v76h249v-76zM345 287h-85l68 387h62l93 -231l98 231h62l61 -387h-85l-29 209l-90 -214h-34l-88 214z" />
    <glyph glyph-name="hyphenminus" horiz-adv-x="340" 
d="M40 174v112h260v-112h-260z" />
    <hkern u1="A" u2="&#x2122;" k="-23" />
    <hkern u1="A" u2="&#x201d;" k="-38" />
    <hkern u1="A" u2="&#x201c;" k="63" />
    <hkern u1="A" u2="&#x2019;" k="-37" />
    <hkern u1="A" u2="&#x2018;" k="63" />
    <hkern u1="A" u2="y" k="23" />
    <hkern u1="A" u2="w" k="31" />
    <hkern u1="A" u2="v" k="31" />
    <hkern u1="A" u2="Y" k="115" />
    <hkern u1="A" u2="W" k="83" />
    <hkern u1="A" u2="V" k="127" />
    <hkern u1="A" u2="T" k="34" />
    <hkern u1="A" u2="G" k="2" />
    <hkern u1="A" u2="C" k="1" />
    <hkern u1="A" u2="&#x2a;" k="96" />
    <hkern u1="B" u2="Y" k="50" />
    <hkern u1="B" u2="W" k="33" />
    <hkern u1="B" u2="V" k="33" />
    <hkern u1="D" u2="Y" k="72" />
    <hkern u1="D" u2="V" k="4" />
    <hkern u1="F" u2="&#x2026;" k="171" />
    <hkern u1="F" u2="s" k="28" />
    <hkern u1="F" u2="q" k="33" />
    <hkern u1="F" u2="o" k="33" />
    <hkern u1="F" u2="g" k="33" />
    <hkern u1="F" u2="e" k="33" />
    <hkern u1="F" u2="d" k="33" />
    <hkern u1="F" u2="c" k="33" />
    <hkern u1="F" u2="a" k="33" />
    <hkern u1="F" u2="J" k="68" />
    <hkern u1="F" u2="A" k="74" />
    <hkern u1="F" u2="&#x2e;" k="56" />
    <hkern u1="F" u2="&#x2c;" k="37" />
    <hkern u1="K" u2="y" k="27" />
    <hkern u1="K" u2="w" k="73" />
    <hkern u1="K" u2="v" k="73" />
    <hkern u1="K" u2="Q" k="76" />
    <hkern u1="K" u2="O" k="76" />
    <hkern u1="K" u2="G" k="66" />
    <hkern u1="K" u2="C" k="70" />
    <hkern u1="L" u2="&#x2122;" k="-41" />
    <hkern u1="L" u2="&#x201d;" k="9" />
    <hkern u1="L" u2="&#x2019;" k="-16" />
    <hkern u1="L" u2="y" k="35" />
    <hkern u1="L" u2="w" k="25" />
    <hkern u1="L" u2="v" k="25" />
    <hkern u1="L" u2="Y" k="66" />
    <hkern u1="L" u2="W" k="56" />
    <hkern u1="L" u2="V" k="70" />
    <hkern u1="L" u2="T" k="18" />
    <hkern u1="L" u2="Q" k="2" />
    <hkern u1="L" u2="O" k="2" />
    <hkern u1="L" u2="&#x2a;" k="49" />
    <hkern u1="O" u2="Y" k="61" />
    <hkern u1="O" u2="X" k="51" />
    <hkern u1="O" u2="W" k="29" />
    <hkern u1="O" u2="V" k="34" />
    <hkern u1="O" u2="A" k="40" />
    <hkern u1="P" u2="&#x2026;" k="239" />
    <hkern u1="P" u2="J" k="52" />
    <hkern u1="P" u2="A" k="60" />
    <hkern u1="P" u2="&#x2e;" k="146" />
    <hkern u1="P" u2="&#x2c;" k="133" />
    <hkern u1="Q" u2="Y" k="56" />
    <hkern u1="Q" u2="W" k="41" />
    <hkern u1="Q" u2="V" k="41" />
    <hkern u1="Q" u2="A" k="11" />
    <hkern u1="T" u2="&#x2026;" k="67" />
    <hkern u1="T" u2="z" k="41" />
    <hkern u1="T" u2="y" k="37" />
    <hkern u1="T" u2="x" k="36" />
    <hkern u1="T" u2="w" k="33" />
    <hkern u1="T" u2="v" k="32" />
    <hkern u1="T" u2="u" k="62" />
    <hkern u1="T" u2="s" k="50" />
    <hkern u1="T" u2="r" k="62" />
    <hkern u1="T" u2="q" k="59" />
    <hkern u1="T" u2="p" k="62" />
    <hkern u1="T" u2="o" k="59" />
    <hkern u1="T" u2="n" k="62" />
    <hkern u1="T" u2="m" k="62" />
    <hkern u1="T" u2="g" k="59" />
    <hkern u1="T" u2="e" k="59" />
    <hkern u1="T" u2="d" k="59" />
    <hkern u1="T" u2="c" k="59" />
    <hkern u1="T" u2="a" k="59" />
    <hkern u1="T" u2="S" k="28" />
    <hkern u1="T" u2="Q" k="28" />
    <hkern u1="T" u2="O" k="28" />
    <hkern u1="T" u2="J" k="15" />
    <hkern u1="T" u2="G" k="29" />
    <hkern u1="T" u2="C" k="29" />
    <hkern u1="T" u2="A" k="39" />
    <hkern u1="T" u2="&#x3b;" k="-39" />
    <hkern u1="T" u2="&#x3a;" k="-28" />
    <hkern u1="T" u2="&#x2e;" k="-27" />
    <hkern u1="T" u2="&#x2c;" k="-27" />
    <hkern u1="U" u2="A" k="3" />
    <hkern u1="V" u2="&#x2026;" k="159" />
    <hkern u1="V" u2="y" k="34" />
    <hkern u1="V" u2="x" k="44" />
    <hkern u1="V" u2="u" k="51" />
    <hkern u1="V" u2="s" k="43" />
    <hkern u1="V" u2="r" k="49" />
    <hkern u1="V" u2="q" k="54" />
    <hkern u1="V" u2="p" k="40" />
    <hkern u1="V" u2="o" k="55" />
    <hkern u1="V" u2="n" k="41" />
    <hkern u1="V" u2="m" k="41" />
    <hkern u1="V" u2="g" k="54" />
    <hkern u1="V" u2="e" k="80" />
    <hkern u1="V" u2="d" k="80" />
    <hkern u1="V" u2="c" k="82" />
    <hkern u1="V" u2="a" k="76" />
    <hkern u1="V" u2="Q" k="40" />
    <hkern u1="V" u2="O" k="40" />
    <hkern u1="V" u2="J" k="34" />
    <hkern u1="V" u2="G" k="40" />
    <hkern u1="V" u2="C" k="40" />
    <hkern u1="V" u2="A" k="132" />
    <hkern u1="V" u2="&#x3b;" k="-6" />
    <hkern u1="V" u2="&#x3a;" k="16" />
    <hkern u1="V" u2="&#x2e;" k="39" />
    <hkern u1="V" u2="&#x2c;" k="-3" />
    <hkern u1="W" u2="&#x2026;" k="130" />
    <hkern u1="W" u2="y" k="27" />
    <hkern u1="W" u2="x" k="39" />
    <hkern u1="W" u2="w" k="34" />
    <hkern u1="W" u2="v" k="38" />
    <hkern u1="W" u2="u" k="27" />
    <hkern u1="W" u2="s" k="61" />
    <hkern u1="W" u2="r" k="35" />
    <hkern u1="W" u2="q" k="69" />
    <hkern u1="W" u2="p" k="35" />
    <hkern u1="W" u2="o" k="69" />
    <hkern u1="W" u2="n" k="35" />
    <hkern u1="W" u2="m" k="35" />
    <hkern u1="W" u2="g" k="69" />
    <hkern u1="W" u2="e" k="69" />
    <hkern u1="W" u2="d" k="69" />
    <hkern u1="W" u2="c" k="69" />
    <hkern u1="W" u2="a" k="69" />
    <hkern u1="W" u2="J" k="34" />
    <hkern u1="W" u2="A" k="97" />
    <hkern u1="W" u2="&#x3b;" k="2" />
    <hkern u1="W" u2="&#x3a;" k="3" />
    <hkern u1="W" u2="&#x2e;" k="35" />
    <hkern u1="W" u2="&#x2c;" k="19" />
    <hkern u1="X" u2="y" k="41" />
    <hkern u1="X" u2="w" k="45" />
    <hkern u1="X" u2="v" k="45" />
    <hkern u1="X" u2="Q" k="59" />
    <hkern u1="X" u2="O" k="59" />
    <hkern u1="X" u2="G" k="54" />
    <hkern u1="X" u2="C" k="59" />
    <hkern u1="Y" u2="&#x2026;" k="144" />
    <hkern u1="Y" u2="z" k="48" />
    <hkern u1="Y" u2="y" k="32" />
    <hkern u1="Y" u2="x" k="71" />
    <hkern u1="Y" u2="w" k="29" />
    <hkern u1="Y" u2="v" k="36" />
    <hkern u1="Y" u2="u" k="89" />
    <hkern u1="Y" u2="s" k="107" />
    <hkern u1="Y" u2="r" k="56" />
    <hkern u1="Y" u2="q" k="117" />
    <hkern u1="Y" u2="p" k="56" />
    <hkern u1="Y" u2="o" k="117" />
    <hkern u1="Y" u2="n" k="56" />
    <hkern u1="Y" u2="m" k="56" />
    <hkern u1="Y" u2="g" k="117" />
    <hkern u1="Y" u2="e" k="117" />
    <hkern u1="Y" u2="d" k="117" />
    <hkern u1="Y" u2="c" k="117" />
    <hkern u1="Y" u2="a" k="117" />
    <hkern u1="Y" u2="Q" k="38" />
    <hkern u1="Y" u2="O" k="38" />
    <hkern u1="Y" u2="J" k="30" />
    <hkern u1="Y" u2="G" k="34" />
    <hkern u1="Y" u2="C" k="37" />
    <hkern u1="Y" u2="A" k="83" />
    <hkern u1="Y" u2="&#x3b;" k="107" />
    <hkern u1="Y" u2="&#x3a;" k="71" />
    <hkern u1="Y" u2="&#x2e;" k="124" />
    <hkern u1="Y" u2="&#x2c;" k="111" />
    <hkern u1="Z" u2="y" k="9" />
    <hkern u1="Z" u2="w" k="9" />
    <hkern u1="Z" u2="v" k="9" />
    <hkern u1="Z" u2="Q" k="26" />
    <hkern u1="Z" u2="O" k="26" />
    <hkern u1="Z" u2="G" k="11" />
    <hkern u1="Z" u2="C" k="11" />
    <hkern u1="a" u2="T" k="62" />
    <hkern u1="r" u2="&#x2026;" k="91" />
    <hkern u1="r" u2="&#x2e;" k="76" />
    <hkern u1="r" u2="&#x2c;" k="84" />
    <hkern u1="v" u2="&#x2026;" k="88" />
    <hkern u1="v" u2="&#x2e;" k="-5" />
    <hkern u1="v" u2="&#x2c;" k="-18" />
    <hkern u1="w" u2="&#x2026;" k="88" />
    <hkern u1="w" u2="&#x2e;" k="73" />
    <hkern u1="w" u2="&#x2c;" k="-19" />
    <hkern u1="y" u2="&#x2026;" k="96" />
    <hkern u1="y" u2="&#x2e;" k="81" />
    <hkern u1="y" u2="&#x2c;" k="13" />
    <hkern u1="&#x403;" u2="&#x2026;" k="141" />
    <hkern u1="&#x403;" u2="&#x44f;" k="98" />
    <hkern u1="&#x403;" u2="&#x44e;" k="48" />
    <hkern u1="&#x403;" u2="&#x44d;" k="112" />
    <hkern u1="&#x403;" u2="&#x44c;" k="48" />
    <hkern u1="&#x403;" u2="&#x44b;" k="48" />
    <hkern u1="&#x403;" u2="&#x449;" k="48" />
    <hkern u1="&#x403;" u2="&#x448;" k="48" />
    <hkern u1="&#x403;" u2="&#x447;" k="120" />
    <hkern u1="&#x403;" u2="&#x446;" k="48" />
    <hkern u1="&#x403;" u2="&#x445;" k="80" />
    <hkern u1="&#x403;" u2="&#x444;" k="114" />
    <hkern u1="&#x403;" u2="&#x443;" k="80" />
    <hkern u1="&#x403;" u2="&#x442;" k="84" />
    <hkern u1="&#x403;" u2="&#x441;" k="114" />
    <hkern u1="&#x403;" u2="&#x440;" k="48" />
    <hkern u1="&#x403;" u2="&#x43f;" k="48" />
    <hkern u1="&#x403;" u2="&#x43e;" k="114" />
    <hkern u1="&#x403;" u2="&#x43d;" k="48" />
    <hkern u1="&#x403;" u2="&#x43c;" k="90" />
    <hkern u1="&#x403;" u2="&#x43b;" k="86" />
    <hkern u1="&#x403;" u2="&#x43a;" k="48" />
    <hkern u1="&#x403;" u2="&#x439;" k="27" />
    <hkern u1="&#x403;" u2="&#x438;" k="48" />
    <hkern u1="&#x403;" u2="&#x437;" k="104" />
    <hkern u1="&#x403;" u2="&#x436;" k="76" />
    <hkern u1="&#x403;" u2="&#x435;" k="114" />
    <hkern u1="&#x403;" u2="&#x434;" k="82" />
    <hkern u1="&#x403;" u2="&#x433;" k="48" />
    <hkern u1="&#x403;" u2="&#x432;" k="48" />
    <hkern u1="&#x403;" u2="&#x430;" k="53" />
    <hkern u1="&#x403;" u2="&#x42f;" k="40" />
    <hkern u1="&#x403;" u2="&#x424;" k="39" />
    <hkern u1="&#x403;" u2="&#x421;" k="48" />
    <hkern u1="&#x403;" u2="&#x41e;" k="48" />
    <hkern u1="&#x403;" u2="&#x41b;" k="30" />
    <hkern u1="&#x403;" u2="&#x417;" k="33" />
    <hkern u1="&#x403;" u2="&#x410;" k="80" />
    <hkern u1="&#x403;" u2="&#x3b;" k="-6" />
    <hkern u1="&#x403;" u2="&#x3a;" k="11" />
    <hkern u1="&#x403;" u2="&#x2e;" k="2" />
    <hkern u1="&#x403;" u2="&#x2c;" k="14" />
    <hkern u1="&#x40c;" u2="&#x447;" k="82" />
    <hkern u1="&#x40c;" u2="&#x443;" k="27" />
    <hkern u1="&#x40e;" u2="&#x2026;" k="184" />
    <hkern u1="&#x40e;" u2="&#x44f;" k="55" />
    <hkern u1="&#x40e;" u2="&#x44e;" k="16" />
    <hkern u1="&#x40e;" u2="&#x44c;" k="16" />
    <hkern u1="&#x40e;" u2="&#x44b;" k="16" />
    <hkern u1="&#x40e;" u2="&#x449;" k="16" />
    <hkern u1="&#x40e;" u2="&#x448;" k="60" />
    <hkern u1="&#x40e;" u2="&#x447;" k="39" />
    <hkern u1="&#x40e;" u2="&#x446;" k="60" />
    <hkern u1="&#x40e;" u2="&#x445;" k="63" />
    <hkern u1="&#x40e;" u2="&#x444;" k="69" />
    <hkern u1="&#x40e;" u2="&#x441;" k="69" />
    <hkern u1="&#x40e;" u2="&#x440;" k="60" />
    <hkern u1="&#x40e;" u2="&#x43f;" k="60" />
    <hkern u1="&#x40e;" u2="&#x43e;" k="70" />
    <hkern u1="&#x40e;" u2="&#x43d;" k="60" />
    <hkern u1="&#x40e;" u2="&#x43c;" k="44" />
    <hkern u1="&#x40e;" u2="&#x43b;" k="87" />
    <hkern u1="&#x40e;" u2="&#x43a;" k="60" />
    <hkern u1="&#x40e;" u2="&#x439;" k="60" />
    <hkern u1="&#x40e;" u2="&#x438;" k="60" />
    <hkern u1="&#x40e;" u2="&#x437;" k="59" />
    <hkern u1="&#x40e;" u2="&#x436;" k="42" />
    <hkern u1="&#x40e;" u2="&#x435;" k="67" />
    <hkern u1="&#x40e;" u2="&#x434;" k="56" />
    <hkern u1="&#x40e;" u2="&#x433;" k="60" />
    <hkern u1="&#x40e;" u2="&#x432;" k="60" />
    <hkern u1="&#x40e;" u2="&#x431;" k="10" />
    <hkern u1="&#x40e;" u2="&#x430;" k="69" />
    <hkern u1="&#x40e;" u2="&#x424;" k="7" />
    <hkern u1="&#x40e;" u2="&#x421;" k="9" />
    <hkern u1="&#x40e;" u2="&#x41e;" k="10" />
    <hkern u1="&#x40e;" u2="&#x41b;" k="41" />
    <hkern u1="&#x40e;" u2="&#x417;" k="47" />
    <hkern u1="&#x40e;" u2="&#x414;" k="52" />
    <hkern u1="&#x40e;" u2="&#x410;" k="135" />
    <hkern u1="&#x40e;" u2="&#x3b;" k="-26" />
    <hkern u1="&#x40e;" u2="&#x3a;" k="28" />
    <hkern u1="&#x40e;" u2="&#x2e;" k="14" />
    <hkern u1="&#x40e;" u2="&#x2c;" k="14" />
    <hkern u1="&#x410;" u2="&#x2122;" k="-16" />
    <hkern u1="&#x410;" u2="&#x201d;" k="62" />
    <hkern u1="&#x410;" u2="&#x2019;" k="62" />
    <hkern u1="&#x410;" u2="&#x443;" k="23" />
    <hkern u1="&#x410;" u2="&#x427;" k="67" />
    <hkern u1="&#x410;" u2="&#x424;" k="14" />
    <hkern u1="&#x410;" u2="&#x423;" k="7" />
    <hkern u1="&#x410;" u2="&#x422;" k="6" />
    <hkern u1="&#x410;" u2="&#x421;" k="1" />
    <hkern u1="&#x410;" u2="&#x2a;" k="96" />
    <hkern u1="&#x413;" u2="&#x2026;" k="141" />
    <hkern u1="&#x413;" u2="&#x44f;" k="98" />
    <hkern u1="&#x413;" u2="&#x44e;" k="48" />
    <hkern u1="&#x413;" u2="&#x44d;" k="112" />
    <hkern u1="&#x413;" u2="&#x44c;" k="48" />
    <hkern u1="&#x413;" u2="&#x44b;" k="48" />
    <hkern u1="&#x413;" u2="&#x449;" k="48" />
    <hkern u1="&#x413;" u2="&#x448;" k="48" />
    <hkern u1="&#x413;" u2="&#x447;" k="120" />
    <hkern u1="&#x413;" u2="&#x446;" k="48" />
    <hkern u1="&#x413;" u2="&#x445;" k="80" />
    <hkern u1="&#x413;" u2="&#x444;" k="114" />
    <hkern u1="&#x413;" u2="&#x443;" k="80" />
    <hkern u1="&#x413;" u2="&#x442;" k="84" />
    <hkern u1="&#x413;" u2="&#x441;" k="114" />
    <hkern u1="&#x413;" u2="&#x440;" k="48" />
    <hkern u1="&#x413;" u2="&#x43f;" k="48" />
    <hkern u1="&#x413;" u2="&#x43e;" k="114" />
    <hkern u1="&#x413;" u2="&#x43d;" k="48" />
    <hkern u1="&#x413;" u2="&#x43c;" k="90" />
    <hkern u1="&#x413;" u2="&#x43b;" k="86" />
    <hkern u1="&#x413;" u2="&#x43a;" k="48" />
    <hkern u1="&#x413;" u2="&#x439;" k="27" />
    <hkern u1="&#x413;" u2="&#x438;" k="48" />
    <hkern u1="&#x413;" u2="&#x437;" k="104" />
    <hkern u1="&#x413;" u2="&#x436;" k="76" />
    <hkern u1="&#x413;" u2="&#x435;" k="114" />
    <hkern u1="&#x413;" u2="&#x434;" k="82" />
    <hkern u1="&#x413;" u2="&#x433;" k="48" />
    <hkern u1="&#x413;" u2="&#x432;" k="48" />
    <hkern u1="&#x413;" u2="&#x430;" k="53" />
    <hkern u1="&#x413;" u2="&#x42f;" k="40" />
    <hkern u1="&#x413;" u2="&#x424;" k="39" />
    <hkern u1="&#x413;" u2="&#x421;" k="48" />
    <hkern u1="&#x413;" u2="&#x41e;" k="48" />
    <hkern u1="&#x413;" u2="&#x41b;" k="30" />
    <hkern u1="&#x413;" u2="&#x417;" k="33" />
    <hkern u1="&#x413;" u2="&#x410;" k="80" />
    <hkern u1="&#x413;" u2="&#x3b;" k="-6" />
    <hkern u1="&#x413;" u2="&#x3a;" k="11" />
    <hkern u1="&#x413;" u2="&#x2e;" k="2" />
    <hkern u1="&#x413;" u2="&#x2c;" k="14" />
    <hkern u1="&#x416;" u2="&#x447;" k="66" />
    <hkern u1="&#x416;" u2="&#x443;" k="27" />
    <hkern u1="&#x41a;" u2="&#x447;" k="82" />
    <hkern u1="&#x41a;" u2="&#x443;" k="27" />
    <hkern u1="&#x41e;" u2="&#x423;" k="19" />
    <hkern u1="&#x41e;" u2="&#x410;" k="2" />
    <hkern u1="&#x420;" u2="&#x2026;" k="239" />
    <hkern u1="&#x420;" u2="&#x41b;" k="8" />
    <hkern u1="&#x420;" u2="&#x414;" k="8" />
    <hkern u1="&#x420;" u2="&#x410;" k="43" />
    <hkern u1="&#x420;" u2="&#x2e;" k="30" />
    <hkern u1="&#x420;" u2="&#x2c;" k="4" />
    <hkern u1="&#x422;" u2="&#x2026;" k="67" />
    <hkern u1="&#x422;" u2="&#x451;" k="40" />
    <hkern u1="&#x422;" u2="&#x44f;" k="24" />
    <hkern u1="&#x422;" u2="&#x44e;" k="62" />
    <hkern u1="&#x422;" u2="&#x44d;" k="38" />
    <hkern u1="&#x422;" u2="&#x44c;" k="62" />
    <hkern u1="&#x422;" u2="&#x44b;" k="62" />
    <hkern u1="&#x422;" u2="&#x449;" k="62" />
    <hkern u1="&#x422;" u2="&#x448;" k="62" />
    <hkern u1="&#x422;" u2="&#x447;" k="46" />
    <hkern u1="&#x422;" u2="&#x446;" k="62" />
    <hkern u1="&#x422;" u2="&#x445;" k="6" />
    <hkern u1="&#x422;" u2="&#x444;" k="40" />
    <hkern u1="&#x422;" u2="&#x443;" k="6" />
    <hkern u1="&#x422;" u2="&#x442;" k="10" />
    <hkern u1="&#x422;" u2="&#x441;" k="40" />
    <hkern u1="&#x422;" u2="&#x440;" k="62" />
    <hkern u1="&#x422;" u2="&#x43f;" k="62" />
    <hkern u1="&#x422;" u2="&#x43e;" k="40" />
    <hkern u1="&#x422;" u2="&#x43d;" k="62" />
    <hkern u1="&#x422;" u2="&#x43c;" k="16" />
    <hkern u1="&#x422;" u2="&#x43b;" k="41" />
    <hkern u1="&#x422;" u2="&#x43a;" k="62" />
    <hkern u1="&#x422;" u2="&#x439;" k="51" />
    <hkern u1="&#x422;" u2="&#x438;" k="62" />
    <hkern u1="&#x422;" u2="&#x437;" k="30" />
    <hkern u1="&#x422;" u2="&#x436;" k="24" />
    <hkern u1="&#x422;" u2="&#x435;" k="40" />
    <hkern u1="&#x422;" u2="&#x434;" k="8" />
    <hkern u1="&#x422;" u2="&#x433;" k="62" />
    <hkern u1="&#x422;" u2="&#x432;" k="62" />
    <hkern u1="&#x422;" u2="&#x430;" k="40" />
    <hkern u1="&#x422;" u2="&#x417;" k="37" />
    <hkern u1="&#x422;" u2="&#x410;" k="6" />
    <hkern u1="&#x422;" u2="&#x3b;" k="-39" />
    <hkern u1="&#x422;" u2="&#x3a;" k="-28" />
    <hkern u1="&#x422;" u2="&#x2e;" k="-27" />
    <hkern u1="&#x422;" u2="&#x2c;" k="-27" />
    <hkern u1="&#x423;" u2="&#x2026;" k="184" />
    <hkern u1="&#x423;" u2="&#x44f;" k="55" />
    <hkern u1="&#x423;" u2="&#x44e;" k="16" />
    <hkern u1="&#x423;" u2="&#x44c;" k="16" />
    <hkern u1="&#x423;" u2="&#x44b;" k="16" />
    <hkern u1="&#x423;" u2="&#x449;" k="16" />
    <hkern u1="&#x423;" u2="&#x448;" k="60" />
    <hkern u1="&#x423;" u2="&#x447;" k="39" />
    <hkern u1="&#x423;" u2="&#x446;" k="60" />
    <hkern u1="&#x423;" u2="&#x445;" k="63" />
    <hkern u1="&#x423;" u2="&#x444;" k="69" />
    <hkern u1="&#x423;" u2="&#x441;" k="69" />
    <hkern u1="&#x423;" u2="&#x440;" k="60" />
    <hkern u1="&#x423;" u2="&#x43f;" k="60" />
    <hkern u1="&#x423;" u2="&#x43e;" k="70" />
    <hkern u1="&#x423;" u2="&#x43d;" k="60" />
    <hkern u1="&#x423;" u2="&#x43c;" k="44" />
    <hkern u1="&#x423;" u2="&#x43b;" k="87" />
    <hkern u1="&#x423;" u2="&#x43a;" k="60" />
    <hkern u1="&#x423;" u2="&#x439;" k="60" />
    <hkern u1="&#x423;" u2="&#x438;" k="60" />
    <hkern u1="&#x423;" u2="&#x437;" k="59" />
    <hkern u1="&#x423;" u2="&#x436;" k="42" />
    <hkern u1="&#x423;" u2="&#x435;" k="67" />
    <hkern u1="&#x423;" u2="&#x434;" k="56" />
    <hkern u1="&#x423;" u2="&#x433;" k="60" />
    <hkern u1="&#x423;" u2="&#x432;" k="60" />
    <hkern u1="&#x423;" u2="&#x431;" k="10" />
    <hkern u1="&#x423;" u2="&#x430;" k="69" />
    <hkern u1="&#x423;" u2="&#x424;" k="7" />
    <hkern u1="&#x423;" u2="&#x421;" k="9" />
    <hkern u1="&#x423;" u2="&#x41e;" k="10" />
    <hkern u1="&#x423;" u2="&#x41b;" k="41" />
    <hkern u1="&#x423;" u2="&#x417;" k="47" />
    <hkern u1="&#x423;" u2="&#x414;" k="52" />
    <hkern u1="&#x423;" u2="&#x410;" k="135" />
    <hkern u1="&#x423;" u2="&#x3b;" k="-26" />
    <hkern u1="&#x423;" u2="&#x3a;" k="28" />
    <hkern u1="&#x423;" u2="&#x2e;" k="14" />
    <hkern u1="&#x423;" u2="&#x2c;" k="14" />
    <hkern u1="&#x424;" u2="&#x423;" k="18" />
    <hkern u1="&#x424;" u2="&#x410;" k="17" />
    <hkern u1="&#x425;" u2="&#x447;" k="64" />
    <hkern u1="&#x425;" u2="&#x443;" k="41" />
    <hkern u1="&#x42a;" u2="&#x423;" k="82" />
    <hkern u1="&#x42a;" u2="&#x422;" k="24" />
    <hkern u1="&#x42c;" u2="&#x423;" k="82" />
    <hkern u1="&#x42c;" u2="&#x422;" k="24" />
    <hkern u1="&#x433;" u2="&#x2026;" k="71" />
    <hkern u1="&#x433;" u2="&#x2e;" k="56" />
    <hkern u1="&#x433;" u2="&#x2c;" k="-24" />
    <hkern u1="&#x442;" u2="&#x2026;" k="37" />
    <hkern u1="&#x442;" u2="&#x2e;" k="22" />
    <hkern u1="&#x442;" u2="&#x2c;" k="-32" />
    <hkern u1="&#x443;" u2="&#x2026;" k="96" />
    <hkern u1="&#x443;" u2="&#x2e;" k="81" />
    <hkern u1="&#x443;" u2="&#x2c;" k="19" />
    <hkern u1="&#x44a;" u2="&#x443;" k="18" />
    <hkern u1="&#x44c;" u2="&#x443;" k="18" />
    <hkern u1="&#x453;" u2="&#x2026;" k="71" />
    <hkern u1="&#x453;" u2="&#x2e;" k="56" />
    <hkern u1="&#x453;" u2="&#x2c;" k="-24" />
    <hkern u1="&#x45e;" u2="&#x2026;" k="96" />
    <hkern u1="&#x45e;" u2="&#x2e;" k="81" />
    <hkern u1="&#x45e;" u2="&#x2c;" k="19" />
    <hkern u1="&#x2018;" u2="J" k="77" />
    <hkern u1="&#x2018;" u2="A" k="31" />
    <hkern u1="&#x2019;" u2="J" k="142" />
    <hkern u1="&#x2019;" u2="A" k="221" />
    <hkern u1="&#x201c;" u2="J" k="77" />
    <hkern u1="&#x201c;" u2="A" k="14" />
    <hkern u1="&#x201d;" u2="J" k="154" />
    <hkern u1="&#x201d;" u2="A" k="255" />
  </font>
</defs></svg>
